{
	"enquiryId": "DP-20301-bqu7ddxj4cm",
	"vehicle": {
		"isVehicleNew": false,
		"vehicleMaincode": "1600300301",
		"licensePlateNumber": "<licensePlateNumber>",
		"vehicleIdentificationNumber": "<vehicleIdentificationNumber>",
		"engineNumber": "<engineNumber>",
		"manufactureDate": "0001-01-01",
		"registrationDate": "2017-03-01",
		"vehicleIDV": {
			"idv": 2131500,
			"defaultIdv": 2131500,
			"minimumIdv": 1705200,
			"maximumIdv": 2557800
		},
		"bodyType": null,
		"vehicleType": "KFZMD",
		"usageType": "KFZOT",
		"permitType": "PUBLIC",
		"trailers": null,
		"odometerReading": null,
		"annualMileage": null,
		"batteryNumber": null,
		"chargerNumber": null,
		"maximumPermissibleWeight": 0,
		"make": "APOLLO",
		"model": "AP 550 PAVER"
	},
	"previousInsurer": {
		"previousInsurerCode": "",
		"previousPolicyNumber": "",
		"previousPolicyExpiryDate": "2019-01-23",
		"isClaimInLastYear": true,
		"previousPolicyType": null,
		"previousNoClaimBonus": "ZERO",
		"previousNoClaimBonusValue": null
	},
	"contract": {
		"insuranceProductCode": "20301",
		"subInsuranceProductCode": "PB",
		"productUniqueIndentifier": null,
		"startDate": "2019-04-23",
		"endDate": "2020-04-22",
		"policyTerm": 1,
		"policyNumber": null,
		"externalPolicyNumber": "",
		"coverages": [
			{
				"coverType": "THIRD_PARTY",
				"name": "Motor Third Party Liability Insurance",
				"coverCode": "THIRD_PARTY",
				"componentNumber": null,
				"selection": true,
				"coverTerm": null,
				"status": null,
				"coPay": null,
				"coverAvailability": "MANDATORY",
				"value": {
					"valueType": null,
					"insuredValue": 0,
					"minValue": 0,
					"maxValue": 0,
					"validValues": null
				},
				"voluntaryDeductible": null,
				"compulsoryDeductible": null,
				"discount": null,
				"surcharge": null,
				"subCovers": [
					{
						"coverType": "Cover",
						"name": "Property Damage",
						"coverCode": null,
						"componentNumber": "10061",
						"selection": true,
						"coverTerm": null,
						"status": null,
						"coPay": null,
						"coverAvailability": "MANDATORY",
						"value": {
							"valueType": "SUM_INSURED",
							"insuredValue": 750000,
							"minValue": 0,
							"maxValue": 0,
							"validValues": [
								6000,
								750000
							]
						},
						"voluntaryDeductible": null,
						"compulsoryDeductible": null,
						"discount": null,
						"surcharge": null,
						"subCovers": [],
						"plan": null,
						"tyreType": null,
						"dailyConveyanceType": null,
						"netPremium": "INR 6115.00",
						"tariffPremium": "INR 0.00"
					},
					{
						"coverType": "Cover",
						"name": "CNG Kit - IMT 25",
						"coverCode": "ACCESSORIES_NEW",
						"componentNumber": "10134",
						"selection": false,
						"coverTerm": null,
						"status": null,
						"coPay": null,
						"coverAvailability": "NOT_AVAILABLE",
						"value": {
							"valueType": null,
							"insuredValue": 0,
							"minValue": 0,
							"maxValue": 0,
							"validValues": null
						},
						"voluntaryDeductible": null,
						"compulsoryDeductible": null,
						"discount": null,
						"surcharge": null,
						"subCovers": [],
						"plan": null,
						"tyreType": null,
						"dailyConveyanceType": null,
						"netPremium": "INR 0.00",
						"tariffPremium": "INR 0.00"
					}
				],
				"plan": null,
				"tyreType": null,
				"dailyConveyanceType": null,
				"netPremium": "INR 0.00",
				"tariffPremium": "INR 0.00"
			},
			{
				"coverType": "OWN_DAMAGE",
				"name": "Motor Own Damage",
				"coverCode": "OWN_DAMAGE",
				"componentNumber": null,
				"selection": true,
				"coverTerm": null,
				"status": null,
				"coPay": null,
				"coverAvailability": "MANDATORY",
				"value": {
					"valueType": "SUM_INSURED",
					"insuredValue": 2131500,
					"minValue": 1705200,
					"maxValue": 2557800,
					"validValues": null
				},
				"voluntaryDeductible": null,
				"compulsoryDeductible": null,
				"discount": {
					"userSpecialDiscountPercent": 0,
					"defaultSpecialDiscountPercent": 0,
					"impliedDiscountPercent": 0,
					"effectiveSpecialDiscountPercent": 0,
					"minSpecialDiscountPercent": 0,
					"maxSpecialDiscountPercent": 30,
					"isUWViolated": false,
					"agentType": null,
					"userDefaultCommissionPercent": 0,
					"newUserCommissionPercent": 0,
					"effectiveIncrementalCommissionPercent": 0,
					"discounts": [],
					"status": 204
				},
				"surcharge": null,
				"subCovers": [
					{
						"coverType": "Cover",
						"name": "IMT23",
						"coverCode": null,
						"componentNumber": "47860",
						"selection": false,
						"coverTerm": null,
						"status": null,
						"coPay": null,
						"coverAvailability": "AVAILABLE",
						"value": {
							"valueType": null,
							"insuredValue": 0,
							"minValue": 0,
							"maxValue": 0,
							"validValues": null
						},
						"voluntaryDeductible": null,
						"compulsoryDeductible": null,
						"discount": null,
						"surcharge": null,
						"subCovers": [],
						"plan": null,
						"tyreType": null,
						"dailyConveyanceType": null,
						"netPremium": "INR 0.00",
						"tariffPremium": "INR 0.00"
					},
					{
						"coverType": "Cover",
						"name": "IMT 47 (Overturning Cover Exclusion)",
						"coverCode": null,
						"componentNumber": "47857",
						"selection": false,
						"coverTerm": null,
						"status": null,
						"coPay": null,
						"coverAvailability": "AVAILABLE",
						"value": {
							"valueType": null,
							"insuredValue": 0,
							"minValue": 0,
							"maxValue": 0,
							"validValues": null
						},
						"voluntaryDeductible": null,
						"compulsoryDeductible": null,
						"discount": null,
						"surcharge": null,
						"subCovers": [],
						"plan": null,
						"tyreType": null,
						"dailyConveyanceType": null,
						"netPremium": "INR 0.00",
						"tariffPremium": "INR 0.00"
					},
					{
						"coverType": "Cover",
						"name": "Compulsary Deductible - IMT 21",
						"coverCode": null,
						"componentNumber": "47862",
						"selection": true,
						"coverTerm": null,
						"status": null,
						"coPay": null,
						"coverAvailability": "MANDATORY",
						"value": {
							"valueType": null,
							"insuredValue": 0,
							"minValue": 0,
							"maxValue": 0,
							"validValues": null
						},
						"voluntaryDeductible": null,
						"compulsoryDeductible": null,
						"discount": null,
						"surcharge": null,
						"subCovers": [],
						"plan": null,
						"tyreType": null,
						"dailyConveyanceType": null,
						"netPremium": "INR 0.00",
						"tariffPremium": "INR 0.00"
					},
					{
						"coverType": "Cover",
						"name": "Compulsary Deductible - IMT 22",
						"coverCode": null,
						"componentNumber": "10159",
						"selection": false,
						"coverTerm": null,
						"status": null,
						"coPay": null,
						"coverAvailability": "NOT_AVAILABLE",
						"value": {
							"valueType": null,
							"insuredValue": 0,
							"minValue": 0,
							"maxValue": 0,
							"validValues": null
						},
						"voluntaryDeductible": null,
						"compulsoryDeductible": null,
						"discount": null,
						"surcharge": null,
						"subCovers": [],
						"plan": null,
						"tyreType": null,
						"dailyConveyanceType": null,
						"netPremium": "INR 0.00",
						"tariffPremium": "INR 0.00"
					},
					{
						"coverType": "Cover",
						"name": "CNG Kit - IMT 25",
						"coverCode": "ACCESSORIES_NEW",
						"componentNumber": "10134",
						"selection": false,
						"coverTerm": null,
						"status": null,
						"coPay": null,
						"coverAvailability": "AVAILABLE",
						"value": {
							"valueType": "SUM_INSURED",
							"insuredValue": 20000,
							"minValue": 20000,
							"maxValue": 100000,
							"validValues": null
						},
						"voluntaryDeductible": null,
						"compulsoryDeductible": null,
						"discount": null,
						"surcharge": null,
						"subCovers": [],
						"plan": null,
						"tyreType": null,
						"dailyConveyanceType": null,
						"netPremium": "INR 0.00",
						"tariffPremium": "INR 0.00"
					},
					{
						"coverType": "Cover",
						"name": "Electrical Accessories - IMT 24",
						"coverCode": "ACCESSORIES_NEW",
						"componentNumber": "10132",
						"selection": false,
						"coverTerm": null,
						"status": null,
						"coPay": null,
						"coverAvailability": "NOT_AVAILABLE",
						"value": {
							"valueType": null,
							"insuredValue": 0,
							"minValue": 0,
							"maxValue": 0,
							"validValues": null
						},
						"voluntaryDeductible": null,
						"compulsoryDeductible": null,
						"discount": null,
						"surcharge": null,
						"subCovers": [],
						"plan": null,
						"tyreType": null,
						"dailyConveyanceType": null,
						"netPremium": "INR 0.00",
						"tariffPremium": "INR 0.00"
					},
					{
						"coverType": "Cover",
						"name": "Electrical Accessories - IMT 24",
						"coverCode": "ACCESSORIES_NEW",
						"componentNumber": "47800",
						"selection": false,
						"coverTerm": null,
						"status": null,
						"coPay": null,
						"coverAvailability": "AVAILABLE",
						"value": {
							"valueType": "SUM_INSURED",
							"insuredValue": 2132,
							"minValue": 2132,
							"maxValue": 1705200,
							"validValues": null
						},
						"voluntaryDeductible": null,
						"compulsoryDeductible": null,
						"discount": null,
						"surcharge": null,
						"subCovers": [],
						"plan": null,
						"tyreType": null,
						"dailyConveyanceType": null,
						"netPremium": "INR 0.00",
						"tariffPremium": "INR 0.00"
					},
					{
						"coverType": "Cover",
						"name": "Non Electrical Accessories - IMT 24",
						"coverCode": "ACCESSORIES_NEW",
						"componentNumber": "10133",
						"selection": false,
						"coverTerm": null,
						"status": null,
						"coPay": null,
						"coverAvailability": "NOT_AVAILABLE",
						"value": {
							"valueType": null,
							"insuredValue": 0,
							"minValue": 0,
							"maxValue": 0,
							"validValues": null
						},
						"voluntaryDeductible": null,
						"compulsoryDeductible": null,
						"discount": null,
						"surcharge": null,
						"subCovers": [],
						"plan": null,
						"tyreType": null,
						"dailyConveyanceType": null,
						"netPremium": "INR 0.00",
						"tariffPremium": "INR 0.00"
					},
					{
						"coverType": "Cover",
						"name": "Non Electrical Accessories - IMT 24",
						"coverCode": "ACCESSORIES_NEW",
						"componentNumber": "47801",
						"selection": false,
						"coverTerm": null,
						"status": null,
						"coPay": null,
						"coverAvailability": "AVAILABLE",
						"value": {
							"valueType": "SUM_INSURED",
							"insuredValue": 2132,
							"minValue": 2132,
							"maxValue": 1705200,
							"validValues": null
						},
						"voluntaryDeductible": null,
						"compulsoryDeductible": null,
						"discount": null,
						"surcharge": null,
						"subCovers": [],
						"plan": null,
						"tyreType": null,
						"dailyConveyanceType": null,
						"netPremium": "INR 0.00",
						"tariffPremium": "INR 0.00"
					}
				],
				"plan": "PLAN_D",
				"tyreType": null,
				"dailyConveyanceType": null,
				"netPremium": "INR 25621.00",
				"tariffPremium": "INR 25621.00"
			},
			{
				"coverType": "PA_OWNER",
				"name": "PA Owner Driver - IMT 15",
				"coverCode": "PA_OWNER",
				"componentNumber": null,
				"selection": true,
				"coverTerm": null,
				"status": null,
				"coPay": null,
				"coverAvailability": "AVAILABLE",
				"value": {
					"valueType": "SUM_INSURED",
					"insuredValue": 1500000,
					"minValue": 0,
					"maxValue": 0,
					"validValues": null
				},
				"voluntaryDeductible": null,
				"compulsoryDeductible": null,
				"discount": null,
				"surcharge": null,
				"subCovers": [
					{
						"coverType": "Cover",
						"name": "Personal Accident",
						"coverCode": "PA_OWNER",
						"componentNumber": "10028",
						"selection": false,
						"coverTerm": null,
						"status": null,
						"coPay": null,
						"coverAvailability": "NOT_AVAILABLE",
						"value": {
							"valueType": null,
							"insuredValue": 0,
							"minValue": 0,
							"maxValue": 0,
							"validValues": null
						},
						"voluntaryDeductible": null,
						"compulsoryDeductible": null,
						"discount": null,
						"surcharge": null,
						"subCovers": [],
						"plan": null,
						"tyreType": null,
						"dailyConveyanceType": null,
						"netPremium": "INR 0.00",
						"tariffPremium": "INR 0.00"
					},
					{
						"coverType": "Cover",
						"name": "Personal Accident",
						"coverCode": "PA_OWNER",
						"componentNumber": "10174",
						"selection": true,
						"coverTerm": null,
						"status": null,
						"coPay": null,
						"coverAvailability": "MANDATORY",
						"value": {
							"valueType": "SUM_INSURED",
							"insuredValue": 1500000,
							"minValue": 0,
							"maxValue": 0,
							"validValues": [
								1500000
							]
						},
						"voluntaryDeductible": null,
						"compulsoryDeductible": null,
						"discount": null,
						"surcharge": null,
						"subCovers": [],
						"plan": null,
						"tyreType": null,
						"dailyConveyanceType": null,
						"netPremium": "INR 330.00",
						"tariffPremium": "INR 0.00"
					},
					{
						"coverType": "Cover",
						"name": "Term Plan",
						"coverCode": "PA_OWNER",
						"componentNumber": "48081",
						"selection": false,
						"coverTerm": null,
						"status": null,
						"coPay": null,
						"coverAvailability": "NOT_AVAILABLE",
						"value": {
							"valueType": "TERM_COUNT",
							"insuredValue": 0,
							"minValue": 0,
							"maxValue": 0,
							"validValues": null
						},
						"voluntaryDeductible": null,
						"compulsoryDeductible": null,
						"discount": null,
						"surcharge": null,
						"subCovers": [],
						"plan": null,
						"tyreType": null,
						"dailyConveyanceType": null,
						"netPremium": "INR 0.00",
						"tariffPremium": "INR 0.00"
					}
				],
				"plan": null,
				"tyreType": null,
				"dailyConveyanceType": null,
				"netPremium": "INR 0.00",
				"tariffPremium": "INR 0.00"
			},
			{
				"coverType": "PA_UNNAMED",
				"name": "Unnamed PA Cover",
				"coverCode": "PA_UNNAMED",
				"componentNumber": null,
				"selection": false,
				"coverTerm": null,
				"status": null,
				"coPay": null,
				"coverAvailability": "AVAILABLE",
				"value": {
					"valueType": "SUM_INSURED",
					"insuredValue": 200000,
					"minValue": 100000,
					"maxValue": 200000,
					"validValues": [
						100000,
						200000
					]
				},
				"voluntaryDeductible": null,
				"compulsoryDeductible": null,
				"discount": null,
				"surcharge": null,
				"subCovers": [
					{
						"coverType": "Cover",
						"name": "PA cover for Unnamed passenger",
						"coverCode": null,
						"componentNumber": "47715",
						"selection": false,
						"coverTerm": null,
						"status": null,
						"coPay": null,
						"coverAvailability": "AVAILABLE",
						"value": {
							"valueType": "SUM_INSURED",
							"insuredValue": 200000,
							"minValue": 100000,
							"maxValue": 200000,
							"validValues": [
								100000,
								200000
							]
						},
						"voluntaryDeductible": null,
						"compulsoryDeductible": null,
						"discount": null,
						"surcharge": null,
						"subCovers": [
							{
								"coverType": "Cover",
								"name": "Number of Unnamed Passenger",
								"coverCode": null,
								"componentNumber": "47716",
								"selection": true,
								"coverTerm": null,
								"status": null,
								"coPay": null,
								"coverAvailability": "MANDATORY",
								"value": {
									"valueType": "INSURED_COUNT",
									"insuredValue": 1,
									"minValue": 1,
									"maxValue": 1,
									"validValues": null
								},
								"voluntaryDeductible": null,
								"compulsoryDeductible": null,
								"discount": null,
								"surcharge": null,
								"subCovers": [],
								"plan": null,
								"tyreType": null,
								"dailyConveyanceType": null,
								"netPremium": "INR 0.00",
								"tariffPremium": "INR 0.00"
							}
						],
						"plan": null,
						"tyreType": null,
						"dailyConveyanceType": null,
						"netPremium": "INR 120.00",
						"tariffPremium": "INR 0.00"
					},
					{
						"coverType": "Cover",
						"name": "PA cover for Paid Cleaner - IMT 17",
						"coverCode": null,
						"componentNumber": "47710",
						"selection": false,
						"coverTerm": null,
						"status": null,
						"coPay": null,
						"coverAvailability": "AVAILABLE",
						"value": {
							"valueType": "SUM_INSURED",
							"insuredValue": 200000,
							"minValue": 100000,
							"maxValue": 200000,
							"validValues": [
								100000,
								200000
							]
						},
						"voluntaryDeductible": null,
						"compulsoryDeductible": null,
						"discount": null,
						"surcharge": null,
						"subCovers": [
							{
								"coverType": "Cover",
								"name": "Number of Paid Cleaner",
								"coverCode": null,
								"componentNumber": "47712",
								"selection": true,
								"coverTerm": null,
								"status": null,
								"coPay": null,
								"coverAvailability": "MANDATORY",
								"value": {
									"valueType": "INSURED_COUNT",
									"insuredValue": 1,
									"minValue": 1,
									"maxValue": 1,
									"validValues": null
								},
								"voluntaryDeductible": null,
								"compulsoryDeductible": null,
								"discount": null,
								"surcharge": null,
								"subCovers": [],
								"plan": null,
								"tyreType": null,
								"dailyConveyanceType": null,
								"netPremium": "INR 0.00",
								"tariffPremium": "INR 0.00"
							}
						],
						"plan": null,
						"tyreType": null,
						"dailyConveyanceType": null,
						"netPremium": "INR 120.00",
						"tariffPremium": "INR 0.00"
					},
					{
						"coverType": "Cover",
						"name": "PA cover for Paid Driver - IMT 17",
						"coverCode": null,
						"componentNumber": "47711",
						"selection": false,
						"coverTerm": null,
						"status": null,
						"coPay": null,
						"coverAvailability": "AVAILABLE",
						"value": {
							"valueType": "SUM_INSURED",
							"insuredValue": 200000,
							"minValue": 100000,
							"maxValue": 200000,
							"validValues": [
								100000,
								200000
							]
						},
						"voluntaryDeductible": null,
						"compulsoryDeductible": null,
						"discount": null,
						"surcharge": null,
						"subCovers": [
							{
								"coverType": "Cover",
								"name": "Number of Paid Driver",
								"coverCode": null,
								"componentNumber": "47713",
								"selection": true,
								"coverTerm": null,
								"status": null,
								"coPay": null,
								"coverAvailability": "MANDATORY",
								"value": {
									"valueType": "INSURED_COUNT",
									"insuredValue": 1,
									"minValue": 1,
									"maxValue": 1,
									"validValues": null
								},
								"voluntaryDeductible": null,
								"compulsoryDeductible": null,
								"discount": null,
								"surcharge": null,
								"subCovers": [],
								"plan": null,
								"tyreType": null,
								"dailyConveyanceType": null,
								"netPremium": "INR 0.00",
								"tariffPremium": "INR 0.00"
							}
						],
						"plan": null,
						"tyreType": null,
						"dailyConveyanceType": null,
						"netPremium": "INR 120.00",
						"tariffPremium": "INR 0.00"
					},
					{
						"coverType": "Cover",
						"name": "PA cover for Paid Conductors - IMT 17",
						"coverCode": null,
						"componentNumber": "47709",
						"selection": false,
						"coverTerm": null,
						"status": null,
						"coPay": null,
						"coverAvailability": "AVAILABLE",
						"value": {
							"valueType": "SUM_INSURED",
							"insuredValue": 200000,
							"minValue": 100000,
							"maxValue": 200000,
							"validValues": [
								100000,
								200000
							]
						},
						"voluntaryDeductible": null,
						"compulsoryDeductible": null,
						"discount": null,
						"surcharge": null,
						"subCovers": [
							{
								"coverType": "Cover",
								"name": "Number of Paid Conductors",
								"coverCode": null,
								"componentNumber": "47714",
								"selection": true,
								"coverTerm": null,
								"status": null,
								"coPay": null,
								"coverAvailability": "MANDATORY",
								"value": {
									"valueType": "INSURED_COUNT",
									"insuredValue": 1,
									"minValue": 1,
									"maxValue": 1,
									"validValues": null
								},
								"voluntaryDeductible": null,
								"compulsoryDeductible": null,
								"discount": null,
								"surcharge": null,
								"subCovers": [],
								"plan": null,
								"tyreType": null,
								"dailyConveyanceType": null,
								"netPremium": "INR 0.00",
								"tariffPremium": "INR 0.00"
							}
						],
						"plan": null,
						"tyreType": null,
						"dailyConveyanceType": null,
						"netPremium": "INR 120.00",
						"tariffPremium": "INR 0.00"
					}
				],
				"plan": null,
				"tyreType": null,
				"dailyConveyanceType": null,
				"netPremium": "INR 0.00",
				"tariffPremium": "INR 0.00"
			},
			{
				"coverType": "LEGAL_LIABILITY",
				"name": "Legal Liability for Operations",
				"coverCode": "LEGAL_LIABILITY",
				"componentNumber": null,
				"selection": false,
				"coverTerm": null,
				"status": null,
				"coPay": null,
				"coverAvailability": "AVAILABLE",
				"value": {
					"valueType": null,
					"insuredValue": 0,
					"minValue": 0,
					"maxValue": 0,
					"validValues": null
				},
				"voluntaryDeductible": null,
				"compulsoryDeductible": null,
				"discount": null,
				"surcharge": null,
				"subCovers": [
					{
						"coverType": "Cover",
						"name": "Legal Liability to Paid Driver - IMT 28",
						"coverCode": null,
						"componentNumber": "10181",
						"selection": false,
						"coverTerm": null,
						"status": null,
						"coPay": null,
						"coverAvailability": "AVAILABLE",
						"value": {
							"valueType": "INSURED_COUNT",
							"insuredValue": 1,
							"minValue": 1,
							"maxValue": 1,
							"validValues": [
								1,
								2
							]
						},
						"voluntaryDeductible": null,
						"compulsoryDeductible": null,
						"discount": null,
						"surcharge": null,
						"subCovers": [],
						"plan": null,
						"tyreType": null,
						"dailyConveyanceType": null,
						"netPremium": "INR 50.00",
						"tariffPremium": "INR 0.00"
					},
					{
						"coverType": "Cover",
						"name": "Number of Cleaners",
						"coverCode": null,
						"componentNumber": "10185",
						"selection": false,
						"coverTerm": null,
						"status": null,
						"coPay": null,
						"coverAvailability": "AVAILABLE",
						"value": {
							"valueType": "INSURED_COUNT",
							"insuredValue": 1,
							"minValue": 1,
							"maxValue": 1,
							"validValues": [
								1,
								2,
								3,
								4,
								5,
								6
							]
						},
						"voluntaryDeductible": null,
						"compulsoryDeductible": null,
						"discount": null,
						"surcharge": null,
						"subCovers": [],
						"plan": null,
						"tyreType": null,
						"dailyConveyanceType": null,
						"netPremium": "INR 50.00",
						"tariffPremium": "INR 0.00"
					},
					{
						"coverType": "Cover",
						"name": "Non fare paying passengers",
						"coverCode": null,
						"componentNumber": "47707",
						"selection": false,
						"coverTerm": null,
						"status": null,
						"coPay": null,
						"coverAvailability": "AVAILABLE",
						"value": {
							"valueType": "INSURED_COUNT",
							"insuredValue": 1,
							"minValue": 1,
							"maxValue": 1,
							"validValues": [
								1,
								2,
								3,
								4,
								5,
								6
							]
						},
						"voluntaryDeductible": null,
						"compulsoryDeductible": null,
						"discount": null,
						"surcharge": null,
						"subCovers": [],
						"plan": null,
						"tyreType": null,
						"dailyConveyanceType": null,
						"netPremium": "INR 75.00",
						"tariffPremium": "INR 0.00"
					},
					{
						"coverType": "Cover",
						"name": "Number of people employed in loading/unloading/maintaining",
						"coverCode": null,
						"componentNumber": "47725",
						"selection": false,
						"coverTerm": null,
						"status": null,
						"coPay": null,
						"coverAvailability": "AVAILABLE",
						"value": {
							"valueType": "INSURED_COUNT",
							"insuredValue": 1,
							"minValue": 1,
							"maxValue": 5,
							"validValues": [
								1,
								2,
								3,
								4,
								5
							]
						},
						"voluntaryDeductible": null,
						"compulsoryDeductible": null,
						"discount": null,
						"surcharge": null,
						"subCovers": [],
						"plan": null,
						"tyreType": null,
						"dailyConveyanceType": null,
						"netPremium": "INR 50.00",
						"tariffPremium": "INR 0.00"
					}
				],
				"plan": null,
				"tyreType": null,
				"dailyConveyanceType": null,
				"netPremium": "INR 0.00",
				"tariffPremium": "INR 0.00"
			}
		],
		"policyHolderType": "INDIVIDUAL",
		"currentNoClaimBonus": null,
		"isNCBTransfer": null,
		"purchaseDate": null,
		"quotationDate": null,
		"agentCode": "",
		"isRenewalAvailable": null
	},
	"persons": [
		{
			"personType": "INDIVIDUAL",
			"partyId": "",
			"addresses": [
				{
					"addressType": "PRIMARY_RESIDENCE",
					"flatNumber": null,
					"streetNumber": null,
					"street": "asdfbn",
					"district": "",
					"state": "9",
					"city": "Agra",
					"country": "IN",
					"pincode": "282002",
					"geoCode": null,
					"zone": null
				}
			],
			"communications": [
				{
					"communicationType": "MOBILE",
					"communicationId": "1234567890",
					"isPrefferedCommunication": true
				},
				{
					"communicationType": "EMAIL",
					"communicationId": "satheesh.kumar@godigit.com",
					"isPrefferedCommunication": true
				}
			],
			"identificationDocuments": [],
			"isPolicyHolder": true,
			"isPayer": null,
			"isVehicleOwner": true,
			"title": null,
			"firstName": "dfghjk",
			"middleName": null,
			"lastName": "ALSCKSK",
			"dateOfBirth": "1901-01-01",
			"gender": "MALE",
			"relation": null,
			"isDriver": true,
			"isInsuredPerson": true
		}
	],
	"dealer": null,
	"motorQuestions": {
		"furtherAgreement": null,
		"selfInspection": true,
		"financer": null
	},
	"nominee": null,
	"payment": null,
	"documents": []
}