{
  "enquiryId": "DP-20101-ekv4uzbdnco",
  "vehicle": {
    "isVehicleNew": true,
    "vehicleMaincode": "1110710302",
    "licensePlateNumber": "KA01",
    "vehicleIdentificationNumber": "KLSDFJKSDFHSJKDFHSJDFHJSFHSJKF",
    "engineNumber": "IASFSJKDFJSKDFJSJKDF",
    "manufactureDate": "2018-12-31",
    "registrationDate": "0001-01-01",
    "vehicleIDV": {
      "idv": 575512,
      "defaultIdv": 575512,
      "minimumIdv": 489186,
      "maximumIdv": 661839
    },
    "bodyType": null,
    "vehicleType": "KFZP10",
    "usageType": null,
    "permitType": null,
    "trailers": null,
    "odometerReading": null,
    "annualMileage": null,
    "batteryNumber": null,
    "chargerNumber": null,
    "maximumPermissibleWeight": null,
    "make": "CHEVROLET",
    "model": "BEAT"
  },
  "previousInsurer": {
    "previousInsurerCode": "",
    "previousPolicyNumber": "",
    "previousPolicyExpiryDate": "2019-04-30",
    "isClaimInLastYear": false,
    "previousPolicyType": null,
    "previousNoClaimBonus": "ZERO",
    "previousNoClaimBonusValue": null
  },
  "contract": {
    "insuranceProductCode": "20101",
    "subInsuranceProductCode": "31",
    "productUniqueIndentifier": null,
    "startDate": "2019-04-30",
    "endDate": "2022-04-29",
    "policyTerm": 3,
    "policyNumber": null,
    "externalPolicyNumber": "",
    "coverages": [
      {
        "coverType": "THIRD_PARTY",
        "name": "Motor Third Party Liability Insurance",
        "coverCode": "THIRD_PARTY",
        "componentNumber": null,
        "selection": true,
        "coverTerm": null,
        "status": null,
        "coPay": null,
        "coverAvailability": "MANDATORY",
        "value": {
          "valueType": null,
          "insuredValue": 0,
          "minValue": 0,
          "maxValue": 0,
          "validValues": null
        },
        "voluntaryDeductible": null,
        "compulsoryDeductible": null,
        "discount": null,
        "surcharge": null,
        "subCovers": [
          {
            "coverType": "Cover",
            "name": "Property Damage",
            "coverCode": null,
            "componentNumber": "10061",
            "selection": true,
            "coverTerm": null,
            "status": null,
            "coPay": null,
            "coverAvailability": "MANDATORY",
            "value": {
              "valueType": "SUM_INSURED",
              "insuredValue": 750000,
              "minValue": 0,
              "maxValue": 0,
              "validValues": [
                6000,
                750000
              ]
            },
            "voluntaryDeductible": null,
            "compulsoryDeductible": null,
            "discount": null,
            "surcharge": null,
            "subCovers": [],
            "plan": null,
            "tyreType": null,
            "dailyConveyanceType": null,
            "netPremium": "INR 5286.00",
            "tariffPremium": "INR 0.00"
          },
          {
            "coverType": "Cover",
            "name": "CNG Kit - IMT 25",
            "coverCode": "ACCESSORIES_NEW",
            "componentNumber": "10134",
            "selection": false,
            "coverTerm": null,
            "status": null,
            "coPay": null,
            "coverAvailability": "NOT_AVAILABLE",
            "value": {
              "valueType": null,
              "insuredValue": 0,
              "minValue": 0,
              "maxValue": 0,
              "validValues": null
            },
            "voluntaryDeductible": null,
            "compulsoryDeductible": null,
            "discount": null,
            "surcharge": null,
            "subCovers": [],
            "plan": null,
            "tyreType": null,
            "dailyConveyanceType": null,
            "netPremium": "INR 0.00",
            "tariffPremium": "INR 0.00"
          }
        ],
        "plan": null,
        "tyreType": null,
        "dailyConveyanceType": null,
        "netPremium": "INR 0.00",
        "tariffPremium": "INR 0.00"
      },
      {
        "coverType": "OWN_DAMAGE",
        "name": "Motor Own Damage",
        "coverCode": "OWN_DAMAGE",
        "componentNumber": null,
        "selection": true,
        "coverTerm": null,
        "status": null,
        "coPay": null,
        "coverAvailability": "MANDATORY",
        "value": {
          "valueType": "SUM_INSURED",
          "insuredValue": 575512,
          "minValue": 489186,
          "maxValue": 661839,
          "validValues": null
        },
        "voluntaryDeductible": null,
        "compulsoryDeductible": null,
        "discount": {
          "userSpecialDiscountPercent": 0,
          "defaultSpecialDiscountPercent": 10,
          "impliedDiscountPercent": 10,
          "effectiveSpecialDiscountPercent": 0,
          "minSpecialDiscountPercent": 10,
          "maxSpecialDiscountPercent": 80,
          "isUWViolated": false,
          "agentType": "D01",
          "userDefaultCommissionPercent": 0,
          "newUserCommissionPercent": 0,
          "effectiveIncrementalCommissionPercent": 0,
          "discounts": [],
          "status": 204
        },
        "surcharge": null,
        "subCovers": [
          {
            "coverType": "Cover",
            "name": "IMT23",
            "coverCode": null,
            "componentNumber": "47860",
            "selection": false,
            "coverTerm": null,
            "status": null,
            "coPay": null,
            "coverAvailability": "NOT_AVAILABLE",
            "value": {
              "valueType": null,
              "insuredValue": 0,
              "minValue": 0,
              "maxValue": 0,
              "validValues": null
            },
            "voluntaryDeductible": null,
            "compulsoryDeductible": null,
            "discount": null,
            "surcharge": null,
            "subCovers": [],
            "plan": null,
            "tyreType": null,
            "dailyConveyanceType": null,
            "netPremium": "INR 0.00",
            "tariffPremium": "INR 0.00"
          },
          {
            "coverType": "Cover",
            "name": "IMT 47 (Overturning Cover Exclusion)",
            "coverCode": null,
            "componentNumber": "47857",
            "selection": false,
            "coverTerm": null,
            "status": null,
            "coPay": null,
            "coverAvailability": "NOT_AVAILABLE",
            "value": {
              "valueType": null,
              "insuredValue": 0,
              "minValue": 0,
              "maxValue": 0,
              "validValues": null
            },
            "voluntaryDeductible": null,
            "compulsoryDeductible": null,
            "discount": null,
            "surcharge": null,
            "subCovers": [],
            "plan": null,
            "tyreType": null,
            "dailyConveyanceType": null,
            "netPremium": "INR 0.00",
            "tariffPremium": "INR 0.00"
          },
          {
            "coverType": "Cover",
            "name": "Compulsary Deductible - IMT 21",
            "coverCode": null,
            "componentNumber": "47862",
            "selection": false,
            "coverTerm": null,
            "status": null,
            "coPay": null,
            "coverAvailability": "NOT_AVAILABLE",
            "value": {
              "valueType": null,
              "insuredValue": 0,
              "minValue": 0,
              "maxValue": 0,
              "validValues": null
            },
            "voluntaryDeductible": null,
            "compulsoryDeductible": null,
            "discount": null,
            "surcharge": null,
            "subCovers": [],
            "plan": null,
            "tyreType": null,
            "dailyConveyanceType": null,
            "netPremium": "INR 0.00",
            "tariffPremium": "INR 0.00"
          },
          {
            "coverType": "Cover",
            "name": "Compulsary Deductible - IMT 22",
            "coverCode": null,
            "componentNumber": "10159",
            "selection": true,
            "coverTerm": null,
            "status": null,
            "coPay": null,
            "coverAvailability": "MANDATORY",
            "value": {
              "valueType": null,
              "insuredValue": 0,
              "minValue": 0,
              "maxValue": 0,
              "validValues": null
            },
            "voluntaryDeductible": null,
            "compulsoryDeductible": null,
            "discount": null,
            "surcharge": null,
            "subCovers": [],
            "plan": null,
            "tyreType": null,
            "dailyConveyanceType": null,
            "netPremium": "INR 0.00",
            "tariffPremium": "INR 0.00"
          },
          {
            "coverType": "Cover",
            "name": "CNG Kit - IMT 25",
            "coverCode": "ACCESSORIES_NEW",
            "componentNumber": "10134",
            "selection": false,
            "coverTerm": null,
            "status": null,
            "coPay": null,
            "coverAvailability": "AVAILABLE",
            "value": {
              "valueType": "SUM_INSURED",
              "insuredValue": 15000,
              "minValue": 15000,
              "maxValue": 80000,
              "validValues": null
            },
            "voluntaryDeductible": null,
            "compulsoryDeductible": null,
            "discount": null,
            "surcharge": null,
            "subCovers": [],
            "plan": null,
            "tyreType": null,
            "dailyConveyanceType": null,
            "netPremium": "INR 0.00",
            "tariffPremium": "INR 0.00"
          },
          {
            "coverType": "Cover",
            "name": "Electrical Accessories - IMT 24",
            "coverCode": "ACCESSORIES_NEW",
            "componentNumber": "10132",
            "selection": false,
            "coverTerm": null,
            "status": null,
            "coPay": null,
            "coverAvailability": "AVAILABLE",
            "value": {
              "valueType": "SUM_INSURED",
              "insuredValue": 58,
              "minValue": 58,
              "maxValue": 86327,
              "validValues": null
            },
            "voluntaryDeductible": null,
            "compulsoryDeductible": null,
            "discount": null,
            "surcharge": null,
            "subCovers": [],
            "plan": null,
            "tyreType": null,
            "dailyConveyanceType": null,
            "netPremium": "INR 0.00",
            "tariffPremium": "INR 0.00"
          },
          {
            "coverType": "Cover",
            "name": "Electrical Accessories - IMT 24",
            "coverCode": "ACCESSORIES_NEW",
            "componentNumber": "47800",
            "selection": false,
            "coverTerm": null,
            "status": null,
            "coPay": null,
            "coverAvailability": "NOT_AVAILABLE",
            "value": {
              "valueType": null,
              "insuredValue": 0,
              "minValue": 0,
              "maxValue": 0,
              "validValues": null
            },
            "voluntaryDeductible": null,
            "compulsoryDeductible": null,
            "discount": null,
            "surcharge": null,
            "subCovers": [],
            "plan": null,
            "tyreType": null,
            "dailyConveyanceType": null,
            "netPremium": "INR 0.00",
            "tariffPremium": "INR 0.00"
          },
          {
            "coverType": "Cover",
            "name": "Non Electrical Accessories - IMT 24",
            "coverCode": "ACCESSORIES_NEW",
            "componentNumber": "10133",
            "selection": false,
            "coverTerm": null,
            "status": null,
            "coPay": null,
            "coverAvailability": "AVAILABLE",
            "value": {
              "valueType": "SUM_INSURED",
              "insuredValue": 58,
              "minValue": 58,
              "maxValue": 57551,
              "validValues": null
            },
            "voluntaryDeductible": null,
            "compulsoryDeductible": null,
            "discount": null,
            "surcharge": null,
            "subCovers": [],
            "plan": null,
            "tyreType": null,
            "dailyConveyanceType": null,
            "netPremium": "INR 0.00",
            "tariffPremium": "INR 0.00"
          },
          {
            "coverType": "Cover",
            "name": "Non Electrical Accessories - IMT 24",
            "coverCode": "ACCESSORIES_NEW",
            "componentNumber": "47801",
            "selection": false,
            "coverTerm": null,
            "status": null,
            "coPay": null,
            "coverAvailability": "NOT_AVAILABLE",
            "value": {
              "valueType": null,
              "insuredValue": 0,
              "minValue": 0,
              "maxValue": 0,
              "validValues": null
            },
            "voluntaryDeductible": null,
            "compulsoryDeductible": null,
            "discount": null,
            "surcharge": null,
            "subCovers": [],
            "plan": null,
            "tyreType": null,
            "dailyConveyanceType": null,
            "netPremium": "INR 0.00",
            "tariffPremium": "INR 0.00"
          }
        ],
        "plan": "PLAN_D",
        "tyreType": null,
        "dailyConveyanceType": null,
        "netPremium": "INR 16197.00",
        "tariffPremium": "INR 17996.00"
      },
      {
        "coverType": "ADDONS",
        "name": "Motor Own Damage -  Add Ons",
        "coverCode": "ADDONS",
        "componentNumber": null,
        "selection": false,
        "coverTerm": null,
        "status": null,
        "coPay": null,
        "coverAvailability": "AVAILABLE",
        "value": {
          "valueType": "SUM_INSURED",
          "insuredValue": 575512,
          "minValue": 489186,
          "maxValue": 661839,
          "validValues": null
        },
        "voluntaryDeductible": null,
        "compulsoryDeductible": null,
        "discount": null,
        "surcharge": null,
        "subCovers": [
          {
            "coverType": "Cover",
            "name": "Breakdown Assistance",
            "coverCode": "RSA_ADDON",
            "componentNumber": null,
            "selection": false,
            "coverTerm": null,
            "status": null,
            "coPay": null,
            "coverAvailability": "AVAILABLE",
            "value": {
              "valueType": null,
              "insuredValue": 0,
              "minValue": 0,
              "maxValue": 0,
              "validValues": null
            },
            "voluntaryDeductible": null,
            "compulsoryDeductible": null,
            "discount": null,
            "surcharge": null,
            "subCovers": [],
            "plan": null,
            "tyreType": null,
            "dailyConveyanceType": null,
            "netPremium": "INR 109.00",
            "tariffPremium": "INR 0.00"
          },
          {
            "coverType": "Cover",
            "name": "Tyre Protect",
            "coverCode": "OTHER_ADDON",
            "componentNumber": "10035",
            "selection": false,
            "coverTerm": null,
            "status": null,
            "coPay": null,
            "coverAvailability": "AVAILABLE",
            "value": {
              "valueType": null,
              "insuredValue": 0,
              "minValue": 0,
              "maxValue": 0,
              "validValues": null
            },
            "voluntaryDeductible": null,
            "compulsoryDeductible": null,
            "discount": null,
            "surcharge": null,
            "subCovers": [],
            "plan": null,
            "tyreType": null,
            "dailyConveyanceType": null,
            "netPremium": "INR 119.00",
            "tariffPremium": "INR 0.00"
          },
          {
            "coverType": "Cover",
            "name": "Parts Depreciation Protect",
            "coverCode": "OTHER_ADDON",
            "componentNumber": "10031",
            "selection": false,
            "coverTerm": null,
            "status": null,
            "coPay": null,
            "coverAvailability": "AVAILABLE",
            "value": {
              "valueType": null,
              "insuredValue": 0,
              "minValue": 0,
              "maxValue": 0,
              "validValues": null
            },
            "voluntaryDeductible": null,
            "compulsoryDeductible": null,
            "discount": null,
            "surcharge": null,
            "subCovers": [
              {
                "coverType": "Cover",
                "name": "Cover only 1 claims per year",
                "coverCode": null,
                "componentNumber": "10143",
                "selection": true,
                "coverTerm": null,
                "status": null,
                "coPay": null,
                "coverAvailability": "AVAILABLE",
                "value": {
                  "valueType": null,
                  "insuredValue": 0,
                  "minValue": 0,
                  "maxValue": 0,
                  "validValues": null
                },
                "voluntaryDeductible": null,
                "compulsoryDeductible": null,
                "discount": null,
                "surcharge": null,
                "subCovers": [],
                "plan": null,
                "tyreType": null,
                "dailyConveyanceType": null,
                "netPremium": "INR 0.00",
                "tariffPremium": "INR 0.00"
              },
              {
                "coverType": "Cover",
                "name": "Cover only 2 claims per year",
                "coverCode": null,
                "componentNumber": "10144",
                "selection": false,
                "coverTerm": null,
                "status": null,
                "coPay": null,
                "coverAvailability": "AVAILABLE",
                "value": {
                  "valueType": null,
                  "insuredValue": 0,
                  "minValue": 0,
                  "maxValue": 0,
                  "validValues": null
                },
                "voluntaryDeductible": null,
                "compulsoryDeductible": null,
                "discount": null,
                "surcharge": null,
                "subCovers": [],
                "plan": null,
                "tyreType": null,
                "dailyConveyanceType": null,
                "netPremium": "INR 0.00",
                "tariffPremium": "INR 0.00"
              },
              {
                "coverType": "Cover",
                "name": "Cover Unlimited Claims",
                "coverCode": null,
                "componentNumber": "10145",
                "selection": false,
                "coverTerm": null,
                "status": null,
                "coPay": null,
                "coverAvailability": "AVAILABLE",
                "value": {
                  "valueType": null,
                  "insuredValue": 0,
                  "minValue": 0,
                  "maxValue": 0,
                  "validValues": null
                },
                "voluntaryDeductible": null,
                "compulsoryDeductible": null,
                "discount": null,
                "surcharge": null,
                "subCovers": [],
                "plan": null,
                "tyreType": null,
                "dailyConveyanceType": null,
                "netPremium": "INR 0.00",
                "tariffPremium": "INR 0.00"
              }
            ],
            "plan": null,
            "tyreType": null,
            "dailyConveyanceType": null,
            "netPremium": "INR 2590.00",
            "tariffPremium": "INR 0.00"
          },
          {
            "coverType": "Cover",
            "name": "Consumable cover",
            "coverCode": "OTHER_ADDON",
            "componentNumber": "10038",
            "selection": false,
            "coverTerm": null,
            "status": null,
            "coPay": null,
            "coverAvailability": "AVAILABLE",
            "value": {
              "valueType": null,
              "insuredValue": 0,
              "minValue": 0,
              "maxValue": 0,
              "validValues": null
            },
            "voluntaryDeductible": null,
            "compulsoryDeductible": null,
            "discount": null,
            "surcharge": null,
            "subCovers": [],
            "plan": null,
            "tyreType": null,
            "dailyConveyanceType": null,
            "netPremium": "INR 288.00",
            "tariffPremium": "INR 0.00"
          },
          {
            "coverType": "Cover",
            "name": "Engine and Gear Box Protect",
            "coverCode": "OTHER_ADDON",
            "componentNumber": "10032",
            "selection": false,
            "coverTerm": null,
            "status": null,
            "coPay": null,
            "coverAvailability": "AVAILABLE",
            "value": {
              "valueType": null,
              "insuredValue": 0,
              "minValue": 0,
              "maxValue": 0,
              "validValues": null
            },
            "voluntaryDeductible": null,
            "compulsoryDeductible": null,
            "discount": null,
            "surcharge": null,
            "subCovers": [],
            "plan": null,
            "tyreType": null,
            "dailyConveyanceType": null,
            "netPremium": "INR 431.00",
            "tariffPremium": "INR 0.00"
          },
          {
            "coverType": "Cover",
            "name": "Return to Invoice",
            "coverCode": "OTHER_ADDON",
            "componentNumber": "10034",
            "selection": false,
            "coverTerm": null,
            "status": null,
            "coPay": null,
            "coverAvailability": "AVAILABLE",
            "value": {
              "valueType": null,
              "insuredValue": 0,
              "minValue": 0,
              "maxValue": 0,
              "validValues": null
            },
            "voluntaryDeductible": null,
            "compulsoryDeductible": null,
            "discount": null,
            "surcharge": null,
            "subCovers": [],
            "plan": null,
            "tyreType": null,
            "dailyConveyanceType": null,
            "netPremium": "INR 1079.00",
            "tariffPremium": "INR 0.00"
          }
        ],
        "plan": null,
        "tyreType": null,
        "dailyConveyanceType": null,
        "netPremium": "INR 0.00",
        "tariffPremium": "INR 0.00"
      },
      {
        "coverType": "PA_OWNER",
        "name": "PA Owner Driver - IMT 15",
        "coverCode": "PA_OWNER",
        "componentNumber": null,
        "selection": true,
        "coverTerm": null,
        "status": null,
        "coPay": null,
        "coverAvailability": "AVAILABLE",
        "value": {
          "valueType": "SUM_INSURED",
          "insuredValue": 1500000,
          "minValue": 0,
          "maxValue": 0,
          "validValues": null
        },
        "voluntaryDeductible": null,
        "compulsoryDeductible": null,
        "discount": null,
        "surcharge": null,
        "subCovers": [
          {
            "coverType": "Cover",
            "name": "Personal Accident",
            "coverCode": "PA_OWNER",
            "componentNumber": "10028",
            "selection": true,
            "coverTerm": null,
            "status": null,
            "coPay": null,
            "coverAvailability": "MANDATORY",
            "value": {
              "valueType": "SUM_INSURED",
              "insuredValue": 1500000,
              "minValue": 0,
              "maxValue": 0,
              "validValues": [
                1500000
              ]
            },
            "voluntaryDeductible": null,
            "compulsoryDeductible": null,
            "discount": null,
            "surcharge": null,
            "subCovers": [],
            "plan": null,
            "tyreType": null,
            "dailyConveyanceType": null,
            "netPremium": "INR 909.00",
            "tariffPremium": "INR 0.00"
          },
          {
            "coverType": "Cover",
            "name": "Personal Accident",
            "coverCode": "PA_OWNER",
            "componentNumber": "10174",
            "selection": false,
            "coverTerm": null,
            "status": null,
            "coPay": null,
            "coverAvailability": "NOT_AVAILABLE",
            "value": {
              "valueType": null,
              "insuredValue": 0,
              "minValue": 0,
              "maxValue": 0,
              "validValues": null
            },
            "voluntaryDeductible": null,
            "compulsoryDeductible": null,
            "discount": null,
            "surcharge": null,
            "subCovers": [],
            "plan": null,
            "tyreType": null,
            "dailyConveyanceType": null,
            "netPremium": "INR 0.00",
            "tariffPremium": "INR 0.00"
          },
          {
            "coverType": "Cover",
            "name": "Term Plan",
            "coverCode": "PA_OWNER",
            "componentNumber": "48081",
            "selection": true,
            "coverTerm": null,
            "status": null,
            "coPay": null,
            "coverAvailability": "MANDATORY",
            "value": {
              "valueType": "TERM_COUNT",
              "insuredValue": 3,
              "minValue": 0,
              "maxValue": 0,
              "validValues": [
                1,
                3
              ]
            },
            "voluntaryDeductible": null,
            "compulsoryDeductible": null,
            "discount": null,
            "surcharge": null,
            "subCovers": [],
            "plan": null,
            "tyreType": null,
            "dailyConveyanceType": null,
            "netPremium": "INR 0.00",
            "tariffPremium": "INR 0.00"
          }
        ],
        "plan": null,
        "tyreType": null,
        "dailyConveyanceType": null,
        "netPremium": "INR 0.00",
        "tariffPremium": "INR 0.00"
      },
      {
        "coverType": "PA_UNNAMED",
        "name": "Unnamed PA Cover",
        "coverCode": "PA_UNNAMED",
        "componentNumber": null,
        "selection": false,
        "coverTerm": null,
        "status": null,
        "coPay": null,
        "coverAvailability": "AVAILABLE",
        "value": {
          "valueType": "SUM_INSURED",
          "insuredValue": 100000,
          "minValue": 10000,
          "maxValue": 200000,
          "validValues": [
            10000,
            20000,
            30000,
            40000,
            50000,
            60000,
            70000,
            80000,
            90000,
            100000,
            110000,
            120000,
            130000,
            140000,
            150000,
            160000,
            170000,
            180000,
            190000,
            200000
          ]
        },
        "voluntaryDeductible": null,
        "compulsoryDeductible": null,
        "discount": null,
        "surcharge": null,
        "subCovers": [
          {
            "coverType": "Cover",
            "name": "PA cover for Unnamed Passenger - IMT 16",
            "coverCode": null,
            "componentNumber": "47722",
            "selection": false,
            "coverTerm": null,
            "status": null,
            "coPay": null,
            "coverAvailability": "AVAILABLE",
            "value": {
              "valueType": "SUM_INSURED",
              "insuredValue": 100000,
              "minValue": 10000,
              "maxValue": 200000,
              "validValues": [
                10000,
                20000,
                30000,
                40000,
                50000,
                60000,
                70000,
                80000,
                90000,
                100000,
                110000,
                120000,
                130000,
                140000,
                150000,
                160000,
                170000,
                180000,
                190000,
                200000
              ]
            },
            "voluntaryDeductible": null,
            "compulsoryDeductible": null,
            "discount": null,
            "surcharge": null,
            "subCovers": [
              {
                "coverType": "Cover",
                "name": "Number of Unnamed Passenger",
                "coverCode": null,
                "componentNumber": "47716",
                "selection": true,
                "coverTerm": null,
                "status": null,
                "coPay": null,
                "coverAvailability": "MANDATORY",
                "value": {
                  "valueType": "INSURED_COUNT",
                  "insuredValue": 5,
                  "minValue": 1,
                  "maxValue": 1,
                  "validValues": null
                },
                "voluntaryDeductible": null,
                "compulsoryDeductible": null,
                "discount": null,
                "surcharge": null,
                "subCovers": [],
                "plan": null,
                "tyreType": null,
                "dailyConveyanceType": null,
                "netPremium": "INR 0.00",
                "tariffPremium": "INR 0.00"
              }
            ],
            "plan": null,
            "tyreType": null,
            "dailyConveyanceType": null,
            "netPremium": "INR 750.00",
            "tariffPremium": "INR 0.00"
          },
          {
            "coverType": "Cover",
            "name": "PA cover for Paid Driver - IMT 17",
            "coverCode": null,
            "componentNumber": "47721",
            "selection": false,
            "coverTerm": null,
            "status": null,
            "coPay": null,
            "coverAvailability": "AVAILABLE",
            "value": {
              "valueType": null,
              "insuredValue": 200000,
              "minValue": 100000,
              "maxValue": 200000,
              "validValues": null
            },
            "voluntaryDeductible": null,
            "compulsoryDeductible": null,
            "discount": null,
            "surcharge": null,
            "subCovers": [
              {
                "coverType": "Cover",
                "name": "Number of Paid Driver",
                "coverCode": null,
                "componentNumber": "47713",
                "selection": true,
                "coverTerm": null,
                "status": null,
                "coPay": null,
                "coverAvailability": "MANDATORY",
                "value": {
                  "valueType": "INSURED_COUNT",
                  "insuredValue": 1,
                  "minValue": 1,
                  "maxValue": 1,
                  "validValues": null
                },
                "voluntaryDeductible": null,
                "compulsoryDeductible": null,
                "discount": null,
                "surcharge": null,
                "subCovers": [],
                "plan": null,
                "tyreType": null,
                "dailyConveyanceType": null,
                "netPremium": "INR 0.00",
                "tariffPremium": "INR 0.00"
              }
            ],
            "plan": null,
            "tyreType": null,
            "dailyConveyanceType": null,
            "netPremium": "INR 300.00",
            "tariffPremium": "INR 0.00"
          }
        ],
        "plan": null,
        "tyreType": null,
        "dailyConveyanceType": null,
        "netPremium": "INR 0.00",
        "tariffPremium": "INR 0.00"
      },
      {
        "coverType": "LEGAL_LIABILITY",
        "name": "Legal Liability Cover",
        "coverCode": "LEGAL_LIABILITY",
        "componentNumber": null,
        "selection": false,
        "coverTerm": null,
        "status": null,
        "coPay": null,
        "coverAvailability": "AVAILABLE",
        "value": {
          "valueType": null,
          "insuredValue": 0,
          "minValue": 0,
          "maxValue": 0,
          "validValues": null
        },
        "voluntaryDeductible": null,
        "compulsoryDeductible": null,
        "discount": null,
        "surcharge": null,
        "subCovers": [
          {
            "coverType": "Cover",
            "name": "Legal Liability to Paid Driver - IMT 28",
            "coverCode": null,
            "componentNumber": "10181",
            "selection": false,
            "coverTerm": null,
            "status": null,
            "coPay": null,
            "coverAvailability": "AVAILABLE",
            "value": {
              "valueType": null,
              "insuredValue": 1,
              "minValue": 1,
              "maxValue": 1,
              "validValues": null
            },
            "voluntaryDeductible": null,
            "compulsoryDeductible": null,
            "discount": null,
            "surcharge": null,
            "subCovers": [],
            "plan": null,
            "tyreType": null,
            "dailyConveyanceType": null,
            "netPremium": "INR 150.00",
            "tariffPremium": "INR 0.00"
          },
          {
            "coverType": "Cover",
            "name": "Legal Liability to Employees - IMT 29",
            "coverCode": null,
            "componentNumber": "47749",
            "selection": false,
            "coverTerm": null,
            "status": null,
            "coPay": null,
            "coverAvailability": "AVAILABLE",
            "value": {
              "valueType": null,
              "insuredValue": 1,
              "minValue": 1,
              "maxValue": 1,
              "validValues": null
            },
            "voluntaryDeductible": null,
            "compulsoryDeductible": null,
            "discount": null,
            "surcharge": null,
            "subCovers": [],
            "plan": null,
            "tyreType": null,
            "dailyConveyanceType": null,
            "netPremium": "INR 150.00",
            "tariffPremium": "INR 0.00"
          }
        ],
        "plan": null,
        "tyreType": null,
        "dailyConveyanceType": null,
        "netPremium": "INR 0.00",
        "tariffPremium": "INR 0.00"
      }
    ],
    "policyHolderType": "INDIVIDUAL",
    "currentNoClaimBonus": null,
    "isNCBTransfer": null,
    "purchaseDate": null,
    "quotationDate": null,
    "agentCode": "",
    "isRenewalAvailable": null
  },
  "persons": [
    {
      "personType": "INDIVIDUAL",
      "partyId": "",
      "addresses": [
        {
          "addressType": "PRIMARY_RESIDENCE",
          "flatNumber": null,
          "streetNumber": null,
          "street": "asjdfj",
          "district": "",
          "state": "9",
          "city": "Agra",
          "country": "IN",
          "pincode": "282002",
          "geoCode": null,
          "zone": null
        }
      ],
      "communications": [
        {
          "communicationType": "MOBILE",
          "communicationId": "1234567890",
          "isPrefferedCommunication": true
        },
        {
          "communicationType": "EMAIL",
          "communicationId": "satheesh.kumar@godigit.com",
          "isPrefferedCommunication": true
        }
      ],
      "identificationDocuments": [],
      "isPolicyHolder": true,
      "isPayer": null,
      "isVehicleOwner": true,
      "title": null,
      "firstName": "SATSAY",
      "middleName": null,
      "lastName": "uds",
      "dateOfBirth": "1901-01-01",
      "gender": "MALE",
      "relation": null,
      "isDriver": true,
      "isInsuredPerson": true
    }
  ],
  "dealer": {},
  "motorQuestions": {
    "furtherAgreement": null,
    "selfInspection": null,
    "financer": null
  },
  "nominee": null,
  "payment": null,
  "documents": []
}