{
    "enquiryId": "L4567814",
    "contract": {
        "insuranceProductCode": "10301",
        "subInsuranceProductCode": "UA",
      
        "fleetNumber": "000474",
  "startDate": "2021-04-19",
        "expiryDate": "2022-04-18",
        "groupSize": 1,
        "policyType": "FLOATER",
        "productUniqueIndentifier": "10183"
    },
    "persons": [
        {
            "personType": "LEGALPERSON",
            "addresses": [
                {
                    "pincode": "400070",
                    "city": "Mumbai",
                    "state": "27",
                    "country": "IN",
                    "street": "Fourth Floor Tower 3 Equinox Business park Off BKC LBS Road Kurla",
                    "addressType": "HEAD_QUARTER",
                    "district": "Mumbai"
                }
            ],
"companyName": "GPA LEGAL ENTITY",
"gstCode": "UNREGISTERED",
"isPolicyHolder": true,
"isPrimaryPolicyHolder": true,
"isInsuredPerson": true,
"isPrimaryInsuredPerson": false,
"isPayer": false,
"fleetNumber": "000474"


        },
        {
            "personType": "NATURALPERSONDOCPRIME",
            "identificationDocuments": [
                {
                    "issuingAuthority": "Govt of India",
                    "issuingPlace": "IN",
                    "documentId": "29ACCPT0713D1ZW",
                    "documentType": "GST",
                    "expiryDate": "2025-02-22"
                }
            ],
            "communications": [
                {
                    "communicationType": "MOBILE",
                    "communicationId": "8956293668",
                    "isPrefferedCommunication": true
                },
                {
                    "communicationType": "EMAIL",
                    "communicationId": "prakshepa.tapase@godigit.com",
                    "isPrefferedCommunication": true
                }
            ],
            "coverages": [
                {
                    "coverCode": "VU",
                    "coverType": "48029",
                    "sumInsuredAmount": "INR 2648197",
                    "selection": true
                },
                {
                    "coverCode": "VU",
                    "coverType": "48049",
                    "sumInsuredAmount": "INR 2500000",
                    "selection": true
                },
                {
                    "coverCode": "VU",
                    "coverType": "48301",
                    "sumInsuredAmount": "INR 10000",
                    "selection": true
                },
                {
                    "coverCode": "KG",
                    "coverType": "48047",
                    "sumInsuredAmount": "INR 2648197",
                    "selection": true
                },
                {
                    "coverCode": "KG",
                    "coverType": "48054",
                    "sumInsuredAmount": "INR 2500000",
                    "selection": true
                },
                {
                    "coverCode": "KG",
                    "coverType": "48302",
                    "sumInsuredAmount": "INR 10000",
                    "selection": true
                },
                {
                    "coverCode": "DD",
                    "coverType": "48052",
                    "sumInsuredAmount": "INR 2648197",
                    "selection": true
                },
                {
                    "coverCode": "DD",
                    "coverType": "48055",
                    "sumInsuredAmount": "INR 2500000",
                    "selection": true
                },
                {
                    "coverCode": "RS",
                    "coverType": "48578",
                    "sumInsuredAmount": "INR 2648197",
                    "selection": true
                },
                {
                    "coverCode": "DD",
                    "coverType": "48051",
                    "sumInsuredAmount": "INR 10000",
                    "selection": true
                },
                {
                    "coverCode": "RS",
                    "coverType": "48579",
                    "sumInsuredAmount": "INR 1000",
                    "selection": true
                },
                {
                    "coverCode": "RS",
                    "coverType": "48580",
                    "sumInsuredAmount": "INR 2500000",
                    "selection": true
                },
                {
                    "coverCode": "RS",
                    "coverType": "48581",
                    "sumInsuredAmount": "INR 3",
                    "selection": true
                },
                {
                    "coverCode": "RS",
                    "coverType": "48938",
                    "sumInsuredAmount": "INR 72235",
                    "selection": true
                }
            ],
            "addresses": [
                {
                    "pincode": "560099",
                    "city": "Bengaluru",
                    "state": "29",
                    "country": "IN",
                    "addressType": "PRIMARY_RESIDENCE",
                    "district": "Bengaluru"
                }
            ],
            "firstName": "Mrs",
            "lastName": "Asha Pradeep Tibrewala",
            "dateOfbirth": "1962-07-09",
            "gender": "MALE",
            "nominee": {
                "personType": "NATURALPERSONDOCPRIME",
                "firstName": "Deepak",
                "lastName": ".",
                "gender": "OTHERS",
                "relationship": "SON"
            },
            "uniqueIdentifier": "1",
            "medical": {
                "medicalQuestions": []
            },
            "isPolicyHolder": true,
            "isPrimaryPolicyHolder": false,
            "isInsuredPerson": true,
            "isPrimaryInsuredPerson": true,
            "isPayer": true,
            "relationship": "SELF"
        }
    ],
    "payment": {
        "paymentType": "AGENT_FLOAT",
        "paymentDate": "2020-09-30",
        "instrumentNumber": "P3361886I23322150",
        "premiumAmount": "INR 13572.43"
    },
    "partnerName": "docprime",
    "questions": []
}