{
    "enquiryId": "GMFG01D9901145551010",
    "partnerName": "gmc",
    "contract": {
        "insuranceProductCode": "10202",
        "subInsuranceProductCode": "GM",
        "productUniqueIndentifier": "10212",
        "policyType": "FLOATER",
        "fleetNumber": "000110",
        "startDate": "2021-04-16",
        "expiryDate": "2022-04-15",                                                                                                             "externalPolicyNumber": null,
        "groupSize": 5,
        "certificateNumber": null,
        "policyNumber": null,
        "masterPolicyNumber": "D400361514"
    },
    "persons": [
        {
            "personType": "NATURALPERSON",
            "uniqueIdentifier": "152398",
            "addresses": [
                {
                    "addressType": "PRIMARY_RESIDENCE",
                    "flatNumber": null,
                    "streetNumber": null,
                    "street": "123 street banglour",
                    "district": null,
                    "state": "29",
                    "city": "Bangaluru",
                    "country": "IN",
                    "pincode": "560095",
                    "geoCode": null,
                    "zone": null
                }
            ],
            "communications": [
                {
                    "communicationType": "EMAIL",
                    "communicationId": "Prakshepa.Tapase@godigit.com",
                    "isPrefferedCommunication": true
                },
                {
                    "communicationType": "MOBILE",
                    "communicationId": "8956293668",
                    "isPrefferedCommunication": true
                }
            ],
            "identificationDocuments": [
                {
                    "documentType": "PAN_CARD",
                    "documentId": "TGRFH6690Y",
                    "issuingAuthority": "GOI",
                    "issuingPlace": "IN",
                    "issueDate": null,
                    "expiryDate": null
                }
            ],
            "incomeRange": null,
            "isPolicyHolder": false,
            "isPrimaryPolicyHolder": false,
            "isInsuredPerson": true,
            "isPrimaryInsuredPerson": false,
            "isPayer": false,
            "previousInsurers": [
                {
                    "previousInsurerCode": null,
                    "previousInsurerName": "Others",
                    "startDate": null,
                    "expiryDate": null,
                    "previousInsurerPolicyNumber": null,
                    "cover": null,
                    "coverType": null,
                    "insuredAmount": null
                }
            ],
            "previousClaims": null,
            "nominee": {
                "personType": "NATURALPERSON",
                "uniqueIdentifier": null,
                "addresses": null,
                "communications": null,
                "identificationDocuments": null,
                "incomeRange": null,
                "isPolicyHolder": true,
                "isPrimaryPolicyHolder": true,
                "isInsuredPerson": true,
                "isPrimaryInsuredPerson": true,
                "isPayer": true,
                "previousInsurers": null,
                "previousClaims": null,
                "nominee": null,
                "memberId": null,
                "title": null,
                "firstName": "PH",
                "middleName": null,
                "lastName": "Wife",
                "dateOfbirth": null,
                "profession": null,
                "gender": "FEMALE",
                "relationship": "WIFE",
                "religion": null,
                "residentStatus": null,
                "nationality": null,
                "maritalStatus": null,
                "physicalCharacteristics": null,
                "personalHabits": null,
                "coverages": null,
                "medical": null
            },
            "memberId": null,
            "title": null,
            "firstName": "Madan",
            "middleName": "",
            "lastName": "Nemade",
            "dateOfbirth": "2005-02-25",
            "profession": null,
            "gender": "MALE",
            "relationship": "SON",
            "religion": null,
            "residentStatus": "IN",
            "nationality": "IND",
            "maritalStatus": "V",
            "physicalCharacteristics": null,
            "personalHabits": null,
            "coverages": [
                {
                    "coverCode": "KE",
                    "coverType": "48278",
                    "coverStartDate": "2019-02-17",
                    "coverExpiryDate": null,
                    "sumInsuredAmount": "INR1500000",
                    "selection": true
                },
                {
                    "coverCode": "KE",
                    "coverType": "48277",
                    "coverStartDate": "2019-02-17",
                    "coverExpiryDate": null,
                    "sumInsuredAmount": "INR 1500000",
                    "premiumAmount": "INR 1222",
                    "selection": true
                }
            ],
            "medical": {
                "hasFamilyMedicalhistory": true,
                "medicalQuestions": [
                    {
                        "questionCode": "GMEID",
                        "answerType": "TEXT_DESCRIPTION",
                        "isApplicable": null,
                        "answerDate": null,
                        "detailAnswer": null,
                        "subQuestions": [
                            {
                                "questionCode": "GMCIDE",
                                "answerType": "TEXT_DESCRIPTION",
                                "isApplicable": null,
                                "answerDate": null,
                                "detailAnswer": "2019-02-17",
                                "subQuestions": null
                            }
                        ]
                    },
                    {
                        "questionCode": "GMDRD",
                        "answerType": "DATE",
                        "isApplicable": null,
                        "answerDate": null,
                        "detailAnswer": null,
                        "subQuestions": [
                            {
                                "questionCode": "GMEDT",
                                "answerType": "DATE",
                                "isApplicable": null,
                                "answerDate": null,
                                "detailAnswer": "2019-01-06",
                                "subQuestions": null
                            }
                        ]
                    }
                ]
            }
        },
        {
            "personType": "NATURALPERSON",
            "uniqueIdentifier": "152398",
            "addresses": [
                {
                    "addressType": "PRIMARY_RESIDENCE",
                    "flatNumber": null,
                    "streetNumber": null,
                    "street": "123 street banglour",
                    "district": null,
                    "state": "29",
                    "city": "Bangaluru",
                    "country": "IN",
                    "pincode": "560095",
                    "geoCode": null,
                    "zone": null
                }
            ],
            "communications": [
                {
                    "communicationType": "EMAIL",
                    "communicationId": "Vandana@abc.com",
                    "isPrefferedCommunication": true
                },
                {
                    "communicationType": "MOBILE",
                    "communicationId": "8501564051",
                    "isPrefferedCommunication": true
                }
            ],
            "identificationDocuments": [
                {
                    "documentType": "PAN_CARD",
                    "documentId": "YGTRF6655R",
                    "issuingAuthority": "GOI",
                    "issuingPlace": "IN",
                    "issueDate": null,
                    "expiryDate": null
                }
            ],
            "incomeRange": null,
            "isPolicyHolder": false,
            "isPrimaryPolicyHolder": false,
            "isInsuredPerson": true,
            "isPrimaryInsuredPerson": false,
            "isPayer": false,
            "previousInsurers": [
                {
                    "previousInsurerCode": null,
                    "previousInsurerName": "Others",
                    "startDate": null,
                    "expiryDate": null,
                    "previousInsurerPolicyNumber": null,
                    "cover": null,
                    "coverType": null,
                    "insuredAmount": null
                }
            ],
            "previousClaims": null,
            "nominee": {
                "personType": "NATURALPERSON",
                "uniqueIdentifier": null,
                "addresses": null,
                "communications": null,
                "identificationDocuments": null,
                "incomeRange": null,
                "isPolicyHolder": true,
                "isPrimaryPolicyHolder": true,
                "isInsuredPerson": true,
                "isPrimaryInsuredPerson": true,
                "isPayer": true,
                "previousInsurers": null,
                "previousClaims": null,
                "nominee": null,
                "memberId": null,
                "title": null,
                "firstName": "default",
                "middleName": null,
                "lastName": null,
                "dateOfbirth": null,
                "profession": null,
                "gender": "FEMALE",
                "relationship": "WIFE",
                "religion": null,
                "residentStatus": null,
                "nationality": null,
                "maritalStatus": null,
                "physicalCharacteristics": null,
                "personalHabits": null,
                "coverages": null,
                "medical": null
            },
            "memberId": null,
            "title": null,
            "firstName": "Vandana",
            "middleName": "",
            "lastName": "Nemade",
            "dateOfbirth": "1977-10-30",
            "profession": null,
            "gender": "FEMALE",
            "relationship": "SPOUSE",
            "religion": null,
            "residentStatus": "IN",
            "nationality": "IND",
            "maritalStatus": "V",
            "physicalCharacteristics": null,
            "personalHabits": null,
            "coverages": [
                {
                    "coverCode": "KE",
                    "coverType": "48278",
                    "coverStartDate": "2019-02-17",
                    "coverExpiryDate": null,
                    "sumInsuredAmount": "INR1500000",
                    "selection": true
                },
                {
                    "coverCode": "KE",
                    "coverType": "48277",
                    "coverStartDate": "2019-02-17",
                    "coverExpiryDate": null,
                    "sumInsuredAmount": "INR 1500000",
                    "premiumAmount": "INR 1500",
                    "selection": true
                }
            ],
            "medical": {
                "hasFamilyMedicalhistory": true,
                "medicalQuestions": [
                    {
                        "questionCode": "GMEID",
                        "answerType": "TEXT_DESCRIPTION",
                        "isApplicable": null,
                        "answerDate": null,
                        "detailAnswer": null,
                        "subQuestions": [
                            {
                                "questionCode": "GMCIDE",
                                "answerType": "TEXT_DESCRIPTION",
                                "isApplicable": null,
                                "answerDate": null,
                                "detailAnswer": "5768",
                                "subQuestions": null
                            }
                        ]
                    },
                    {
                        "questionCode": "GMDRD",
                        "answerType": "DATE",
                        "isApplicable": null,
                        "answerDate": null,
                        "detailAnswer": null,
                        "subQuestions": [
                            {
                                "questionCode": "GMEDT",
                                "answerType": "DATE",
                                "isApplicable": null,
                                "answerDate": null,
                                "detailAnswer": "2019-01-06",
                                "subQuestions": null
                            }
                        ]
                    }
                ]
            }
        },
        {
            "personType": "NATURALPERSON",
            "uniqueIdentifier": "152398",
            "addresses": [
                {
                    "addressType": "PRIMARY_RESIDENCE",
                    "flatNumber": null,
                    "streetNumber": null,
                    "street": "123 street banglour",
                    "district": null,
                    "state": "29",
                    "city": "Bangaluru",
                    "country": "IN",
                    "pincode": "560095",
                    "geoCode": null,
                    "zone": null
                }
            ],
            "communications": [
                {
                    "communicationType": "EMAIL",
                    "communicationId": "gaurav@go.com",
                    "isPrefferedCommunication": true
                },
                {
                    "communicationType": "MOBILE",
                    "communicationId": "9404244852",
                    "isPrefferedCommunication": true
                }
            ],
            "identificationDocuments": [
                {
                    "documentType": "PAN_CARD",
                    "documentId": "fgfdg7576j",
                    "issuingAuthority": "GOI",
                    "issuingPlace": "IN",
                    "issueDate": null,
                    "expiryDate": null
                }
            ],
            "incomeRange": null,
            "isPolicyHolder": true,
            "isPrimaryPolicyHolder": false,
            "isInsuredPerson": true,
            "isPrimaryInsuredPerson": false,
            "isPayer": true,
            "previousInsurers": [
                {
                    "previousInsurerCode": null,
                    "previousInsurerName": "Others",
                    "startDate": null,
                    "expiryDate": null,
                    "previousInsurerPolicyNumber": null,
                    "cover": null,
                    "coverType": null,
                    "insuredAmount": null
                }
            ],
            "previousClaims": null,
            "nominee": {
                "personType": "NATURALPERSON",
                "uniqueIdentifier": null,
                "addresses": null,
                "communications": null,
                "identificationDocuments": null,
                "incomeRange": null,
                "isPolicyHolder": true,
                "isPrimaryPolicyHolder": true,
                "isInsuredPerson": true,
                "isPrimaryInsuredPerson": true,
                "isPayer": true,
                "previousInsurers": null,
                "previousClaims": null,
                "nominee": null,
                "memberId": null,
                "title": null,
                "firstName": "default",
                "middleName": null,
                "lastName": null,
                "dateOfbirth": null,
                "profession": null,
                "gender": "FEMALE",
                "relationship": "WIFE",
                "religion": null,
                "residentStatus": null,
                "nationality": null,
                "maritalStatus": null,
                "physicalCharacteristics": null,
                "personalHabits": null,
                "coverages": null,
                "medical": null
            },
            "memberId": null,
            "title": null,
            "firstName": "Gaurav",
            "middleName": "",
            "lastName": "Nemade",
            "dateOfbirth": "1994-03-19",
            "profession": null,
            "gender": "MALE",
            "relationship": "BROTHER",
            "religion": null,
            "residentStatus": "IN",
            "nationality": "IND",
            "maritalStatus": "V",
            "physicalCharacteristics": null,
            "personalHabits": null,
            "coverages": [
                {
                    "coverCode": "KE",
                    "coverType": "48278",
                    "coverStartDate": "2019-02-17",
                    "coverExpiryDate": null,
                    "sumInsuredAmount": "INR1500000",
                    "selection": true
                },
                {
                    "coverCode": "KE",
                    "coverType": "48277",
                    "coverStartDate": "2019-02-17",
                    "coverExpiryDate": null,
                    "sumInsuredAmount": "INR 1500000",
                    "premiumAmount": "INR 1300",
                    "selection": true
                }
            ],
            "medical": {
                "hasFamilyMedicalhistory": true,
                "medicalQuestions": [
                    {
                        "questionCode": "GMEID",
                        "answerType": "TEXT_DESCRIPTION",
                        "isApplicable": null,
                        "answerDate": null,
                        "detailAnswer": null,
                        "subQuestions": [
                            {
                                "questionCode": "GMCIDE",
                                "answerType": "TEXT_DESCRIPTION",
                                "isApplicable": null,
                                "answerDate": null,
                                "detailAnswer": "2019-02-17",
                                "subQuestions": null
                            }
                        ]
                    },
                    {
                        "questionCode": "GMDRD",
                        "answerType": "DATE",
                        "isApplicable": null,
                        "answerDate": null,
                        "detailAnswer": null,
                        "subQuestions": [
                            {
                                "questionCode": "GMEDT",
                                "answerType": "DATE",
                                "isApplicable": null,
                                "answerDate": null,
                                "detailAnswer": "2019-01-06",
                                "subQuestions": null
                            }
                        ]
                    }
                ]
            }
        },
        {
            "personType": "NATURALPERSON",
            "uniqueIdentifier": "152398",
            "addresses": [
                {
                    "addressType": "PRIMARY_RESIDENCE",
                    "flatNumber": null,
                    "streetNumber": null,
                    "street": "123 street banglour",
                    "district": null,
                    "state": "29",
                    "city": "Bangaluru",
                    "country": "IN",
                    "pincode": "560095",
                    "geoCode": null,
                    "zone": null
                }
            ],
            "communications": [
                {
                    "communicationType": "EMAIL",
                    "communicationId": "Prakshepa.Tapase@godigit.com",
                    "isPrefferedCommunication": true
                },
                {
                    "communicationType": "MOBILE",
                    "communicationId": "8956293668",
                    "isPrefferedCommunication": true
                }
            ],
            "identificationDocuments": [
                {
                    "documentType": "PAN_CARD",
                    "documentId": "fgfdg7576j",
                    "issuingAuthority": "GOI",
                    "issuingPlace": "IN",
                    "issueDate": null,
                    "expiryDate": null
                }
            ],
            "incomeRange": null,
            "isPolicyHolder": true,
            "isPrimaryPolicyHolder": true,
            "isInsuredPerson": true,
            "isPrimaryInsuredPerson": true,
            "isPayer": true,
            "previousInsurers": [
                {
                    "previousInsurerCode": null,
                    "previousInsurerName": "Others",
                    "startDate": null,
                    "expiryDate": null,
                    "previousInsurerPolicyNumber": null,
                    "cover": null,
                    "coverType": null,
                    "insuredAmount": null
                }
            ],
            "previousClaims": null,
            "nominee": {
                "personType": "NATURALPERSON",
                "uniqueIdentifier": null,
                "addresses": null,
                "communications": null,
                "identificationDocuments": null,
                "incomeRange": null,
                "isPolicyHolder": true,
                "isPrimaryPolicyHolder": true,
                "isInsuredPerson": true,
                "isPrimaryInsuredPerson": true,
                "isPayer": true,
                "previousInsurers": null,
                "previousClaims": null,
                "nominee": null,
                "memberId": null,
                "title": null,
                "firstName": "default",
                "middleName": null,
                "lastName": null,
                "dateOfbirth": null,
                "profession": null,
                "gender": "FEMALE",
                "relationship": "WIFE",
                "religion": null,
                "residentStatus": null,
                "nationality": null,
                "maritalStatus": null,
                "physicalCharacteristics": null,
                "personalHabits": null,
                "coverages": null,
                "medical": null
            },
            "memberId": null,
            "title": null,
            "firstName": "Sunny",
            "middleName": "",
            "lastName": "Nemade",
            "dateOfbirth": "1989-03-19",
            "profession": null,
            "gender": "MALE",
            "relationship": "SELF",
            "religion": null,
            "residentStatus": "IN",
            "nationality": "IND",
            "maritalStatus": "V",
            "physicalCharacteristics": null,
            "personalHabits": null,
            "coverages": [
                {
                    "coverCode": "KE",
                    "coverType": "48278",
                    "coverStartDate": "2019-02-17",
                    "coverExpiryDate": null,
                    "sumInsuredAmount": "INR1500000",
                    "selection": true
                },
                {
                    "coverCode": "KE",
                    "coverType": "48277",
                    "coverStartDate": "2019-02-17",
                    "coverExpiryDate": null,
                    "sumInsuredAmount": "INR 1500000",
                    "premiumAmount": "INR 1222",
                    "selection": true
                }
            ],
            "medical": {
                "hasFamilyMedicalhistory": true,
                "medicalQuestions": [
                    {
                        "questionCode": "GMEID",
                        "answerType": "TEXT_DESCRIPTION",
                        "isApplicable": true,
                        "answerDate": null,
                        "detailAnswer": null,
                        "subQuestions": [
                            {
                                "questionCode": "GMCIDE",
                                "answerType": "TEXT_DESCRIPTION",
                                "isApplicable": true,
                                "answerDate": null,
                                "detailAnswer": "CD0196",
                                "subQuestions": null
                            }
                        ]
                    },
                    {
                        "questionCode": "GMDRD",
                        "answerType": "DATE",
                        "isApplicable": true,
                        "answerDate": null,
                        "detailAnswer": null,
                        "subQuestions": [
                            {
                                "questionCode": "GMEDT",
                                "answerType": "DATE",
                                "isApplicable": true,
                                "answerDate": null,
                                "detailAnswer": "2019-01-06",
                                "subQuestions": null
                            }
                        ]
                    }
                ]
            }
        }
    ],
    "payment": {
        "paymentType": "AGENT_FLOAT",
        "premiumAmount": "INR 6188.0",
        "transactionId": null,
        "instrumentNumber": "1235342",
        "paymentDate": "2019-01-06",
        "ifscCode": null,
        "micrCode": null
    },
    "externalPolicyNumber": null
}