{
  "userId": "1155",
  "healthDocumentS3link": [
    "https://uat-s3service.godigit.com/S3Service/rest/download/file?target=E6CDD3611171DF8BE9A04DCD07273B823E7DC56AEFE060343E0E34575F9F3B3093A4C9F699F4E2D86BA4130D5B560D187E6640DC2A29E6BDEAA559411AC2652CAE438640C7BA077C835654DF0488A90F"
  ],
  "callbackUrl": "https://uat-digitcarenew.godigit.com/DigitCareNew/health/getAIdata",
  "uniqueKey": "202100016104"
}