{
    "persons": [
    {
      "personType": "INDIVIDUAL",
      "partyId": "",
      "addresses": [
        {
          "addressType": "PRIMARY_RESIDENCE",
          "flatNumber": null,
          "streetNumber": null,
          "street": "GDGHFD",
          "district": "",
          "state": "29",
          "city": "Bengaluru",
          "country": "IN",
          "pincode": "560001",
          "geoCode": null,
          "zone": null
        }
      ],
      "communications": [
        {
          "communicationType": "MOBILE",
          "communicationId": 9000000000,
          "isPrefferedCommunication": true
        },
        {
          "communicationType": "EMAIL",
          "communicationId": "TEST@GMAIL.COM",
          "isPrefferedCommunication": true
        }
      ],
      "identificationDocuments": [
        {
          "documentType": null,
          "documentId": null,
          "issuingAuthority": null,
          "issuingPlace": null,
          "issueDate": null,
          "expiryDate": null
        }
      ],
      "isPolicyHolder": true,
      "isPayer": null,
      "isVehicleOwner": true,
      "title": null,
      "firstName": "TEST",
      "middleName": null,
      "lastName": null,
      "dateOfBirth": "1921-01-01",
      "gender": "MALE",
      "relation": null,
      "isDriver": true,
      "isInsuredPerson": true
    }
  ]
 }