{
  "enquiryId": "",
  "pinCode": "",
  "vehicle": {
    "isVehicleNew": false,
    "vehicleMaincode": "1407821323",
    "licensePlateNumber": "KA05QK5050",
    "vehicleIdentificationNumber": "",
    "engineNumber": "",
    "manufactureDate": "0001-01-01",
    "registrationDate": "2017-01-01",
    "vehicleIDV": {
      "idv": 0
    },
    "seatingCapacity": "2",
    "bodyType": "BXTCB",
    "bodyColour": null,
    "vehicleType": "KFZGC",
    "usageType": "KFZIS",
    "permitType": "PUBLIC",
    "odometerReading": null,
    "annualMileage": null,
    "trailers": [],
    "motorType": null,
    "grossVehicleWeight": {
      "defaulGrossVehicleWeight": "",
      "grossVehicleWeight": "9600",
      "maxGrossVehicleWeight": "",
      "minGrossVehicleWeight": ""
    }
  },
  "preInspection": {
    "isPreInspectionOpted": false,
    "isPreInspectionRequired": false,
    "isPreInspectionWaived": null
  },
  "previousInsurer": {
    "previousInsurerCode": "113",
    "previousPolicyNumber": "JDRHM7R4D",
    "previousPolicyExpiryDate": "2021-05-17",
    "isClaimInLastYear": false,
    "previousPolicyType": "",
    "previousNoClaimBonus": "ZERO"
  },
  "contract": {
    "agentCode": null,
    "insuranceProductCode": "20301",
    "subInsuranceProductCode": "PB",
    "productUniqueIndentifier": null,
    "startDate": null,
    "endDate": null,
    "policyTerm": null,
    "policyNumber": null,
    "externalPolicyNumber": null,
    "coverages": [],
    "policyHolderType": "INDIVIDUAL",
    "currentNoClaimBonus": null,
    "isNCBTransfer": false
  }
}