{
    "enquiryId": "DP-20201-Id-460",
    "contract": {
        "insuranceProductCode": "20201",
        "subInsuranceProductCode": "PB",
        "startDate": "2021-06-09",
        "endDate": "2022-06-08",
        "policyTerm": 1,
        "policyNumber": "D400538167",
        "coverages": [
            {
                "coverType": "THIRD_PARTY",
                "coverAvailability": "MANDATORY",
                "coverCode": "THIRD_PARTY",
                "name": "Motor Third Party Liability Insurance",
                "selection": true,
                "status": "ACTIVE",
                "value": {
                    "insuredValue": 0
                },
                "subCovers": [
                    {
                        "coverType": "Cover",
                        "coverAvailability": "MANDATORY",
                        "name": "Property Damage",
                        "componentNumber": "10061",
                        "selection": true,
                        "value": {
                            "valueType": "SUM_INSURED",
                            "insuredValue": 100000,
                            "minValue": 6000,
                            "maxValue": 100000,
                            "validValues": [
                                6000,
                                100000
                            ]
                        },
                        "subCovers": [
                            
                        ],
                        "netPremium": "INR 752.00"
                    },
                    {
                        "coverType": "Cover",
                        "coverAvailability": "NOT_AVAILABLE",
                        "name": "Is Geographical Extension taken?",
                        "componentNumber": "48764",
                        "selection": false,
                        "value": {
                            "insuredValue": 0,
                            "minValue": 0,
                            "maxValue": 0
                        },
                        "subCovers": [
                            
                        ],
                        "netPremium": "INR 0.00"
                    },
                    {
                        "coverType": "Cover",
                        "coverAvailability": "NOT_AVAILABLE",
                        "coverCode": "ACCESSORIES",
                        "name": "CNG Kit - IMT 25",
                        "componentNumber": "10134",
                        "selection": false,
                        "value": {
                            "insuredValue": 0
                        },
                        "subCovers": [
                            
                        ],
                        "netPremium": "INR 0.00"
                    },
                    {
                        "coverType": "Cover",
                        "coverAvailability": "NOT_AVAILABLE",
                        "coverCode": "ACCESSORIES",
                        "name": "L1 Cover",
                        "componentNumber": "49749",
                        "selection": false,
                        "value": {
                            "insuredValue": 0
                        },
                        "subCovers": [
                            
                        ],
                        "netPremium": "INR 0.00"
                    }
                ],
                "netPremium": "INR 0.00"
            },
            {
                "coverType": "OWN_DAMAGE",
                "coverAvailability": "MANDATORY",
                "coverCode": "OWN_DAMAGE",
                "name": "Motor Own Damage",
                "selection": true,
                "status": "ACTIVE",
                "value": {
                    "valueType": "SUM_INSURED",
                    "insuredValue": 37516
                },
                "discount": {
                    "userSpecialDiscountPercent": 0.0,
                    "defaultSpecialDiscountPercent": 0.0,
                    "defaultSpecialDiscountPercentWithoutPreInspection": 0.0,
                    "effectiveSpecialDiscountPercent": 0,
                    "effectiveSpecialDiscountPercentWithoutPreInspection": 0,
                    "minSpecialDiscountPercent": 0.0,
                    "maxSpecialDiscountPercent": 70.0,
                    "maxBudgetDiscountPercent": 97.08,
                    "effectiveIncrementalCommissionPercent": 0.0,
                    "effectiveIncrementalCommissionPercentWithoutPreInspection": 0.0,
                    "discounts": [
                        {
                            "discountType": "NCB_DISCOUNT",
                            "discountPercent": 20,
                            "discountAmount": "INR 0.00"
                        },
                        {
                            "discountType": "NCB_DISCOUNT",
                            "discountPercent": 20.0,
                            "discountAmount": "INR 233.15"
                        }
                    ],
                    "discountsWithoutPreInspection": [
                        {
                            "discountType": "NCB_DISCOUNT",
                            "discountPercent": 20,
                            "discountAmount": "INR 0.00"
                        },
                        {
                            "discountType": "NCB_DISCOUNT",
                            "discountPercent": 20.0,
                            "discountAmount": "INR 233.15"
                        }
                    ],
                    "discountsWithoutZeroDep": [
                        {
                            "discountType": "NCB_DISCOUNT",
                            "discountPercent": 20,
                            "discountAmount": "INR 0.00"
                        },
                        {
                            "discountType": "NCB_DISCOUNT",
                            "discountPercent": 20.0,
                            "discountAmount": "INR 233.15"
                        }
                    ]
                },
                "surcharge": {
                    "loadings": [
                        {
                            "loadingType": "OTHER_LOADING",
                            "loadingPercent": -81.93,
                            "loadingAmount": "INR -419.99"
                        }
                    ]
                },
                "subCovers": [
                    {
                        "coverType": "Cover",
                        "coverAvailability": "NOT_AVAILABLE",
                        "name": "IMT23",
                        "componentNumber": "47860",
                        "selection": false,
                        "value": {
                            "insuredValue": 0
                        },
                        "subCovers": [
                            
                        ],
                        "netPremium": "INR 0.00"
                    },
                    {
                        "coverType": "Cover",
                        "coverAvailability": "NOT_AVAILABLE",
                        "name": "Theft and conversion Risk - IMT 43",
                        "componentNumber": "47859",
                        "selection": false,
                        "value": {
                            "insuredValue": 0
                        },
                        "subCovers": [
                            
                        ],
                        "netPremium": "INR 0.00"
                    },
                    {
                        "coverType": "Cover",
                        "coverAvailability": "NOT_AVAILABLE",
                        "name": "Is NCB Transfer Applicable?",
                        "componentNumber": "48441",
                        "selection": false,
                        "value": {
                            "insuredValue": 0
                        },
                        "subCovers": [
                            
                        ],
                        "netPremium": "INR 0.00"
                    },
                    {
                        "coverType": "Cover",
                        "coverAvailability": "NOT_AVAILABLE",
                        "name": "IMT 47 (Overturning Cover Exclusion)",
                        "componentNumber": "47857",
                        "selection": false,
                        "value": {
                            "insuredValue": 0
                        },
                        "subCovers": [
                            
                        ],
                        "netPremium": "INR 0.00"
                    },
                    {
                        "coverType": "Cover",
                        "coverAvailability": "NOT_AVAILABLE",
                        "name": "Compulsary Deductible - IMT 21",
                        "componentNumber": "47862",
                        "selection": false,
                        "value": {
                            "insuredValue": 0
                        },
                        "subCovers": [
                            
                        ],
                        "netPremium": "INR 0.00"
                    },
                    {
                        "coverType": "Cover",
                        "coverAvailability": "MANDATORY",
                        "name": "Compulsary Deductible - IMT 22",
                        "componentNumber": "10159",
                        "selection": true,
                        "value": {
                            "insuredValue": 100,
                            "minValue": 100,
                            "maxValue": 100
                        },
                        "subCovers": [
                            
                        ],
                        "netPremium": "INR 0.00"
                    },
                    {
                        "coverType": "Cover",
                        "coverAvailability": "NOT_AVAILABLE",
                        "name": "Is Geographical Extension taken?",
                        "componentNumber": "48764",
                        "selection": false,
                        "value": {
                            "insuredValue": 0,
                            "minValue": 0,
                            "maxValue": 0
                        },
                        "subCovers": [
                            
                        ],
                        "netPremium": "INR 0.00"
                    },
                    {
                        "coverType": "Cover",
                        "coverAvailability": "NOT_AVAILABLE",
                        "coverCode": "OWN_DAMAGE",
                        "name": "Voluntary deductible - IMT 22A",
                        "componentNumber": "10064",
                        "selection": false,
                        "value": {
                            "insuredValue": 0
                        },
                        "subCovers": [
                            
                        ],
                        "netPremium": "INR 0.00"
                    },
                    {
                        "coverType": "Cover",
                        "coverAvailability": "NOT_AVAILABLE",
                        "coverCode": "ACCESSORIES",
                        "name": "CNG Kit - IMT 25",
                        "componentNumber": "10134",
                        "selection": false,
                        "value": {
                            "insuredValue": 0,
                            "minValue": 0,
                            "maxValue": 20000
                        },
                        "subCovers": [
                            
                        ],
                        "netPremium": "INR 0.00"
                    },
                    {
                        "coverType": "Cover",
                        "coverAvailability": "NOT_AVAILABLE",
                        "coverCode": "ACCESSORIES",
                        "name": "Electrical Accessories - IMT 24",
                        "componentNumber": "10132",
                        "selection": false,
                        "value": {
                            "insuredValue": 0
                        },
                        "subCovers": [
                            
                        ],
                        "netPremium": "INR 0.00"
                    },
                    {
                        "coverType": "Cover",
                        "coverAvailability": "AVAILABLE",
                        "coverCode": "ACCESSORIES",
                        "name": "Electrical Accessories - IMT 24",
                        "componentNumber": "47800",
                        "selection": false,
                        "value": {
                            "valueType": "SUM_INSURED",
                            "insuredValue": 188,
                            "minValue": 188,
                            "maxValue": 3752
                        },
                        "subCovers": [
                            
                        ],
                        "netPremium": "INR 0.00"
                    },
                    {
                        "coverType": "Cover",
                        "coverAvailability": "NOT_AVAILABLE",
                        "coverCode": "ACCESSORIES",
                        "name": "Non Electrical Accessories - IMT 24",
                        "componentNumber": "10133",
                        "selection": false,
                        "value": {
                            "insuredValue": 0
                        },
                        "subCovers": [
                            
                        ],
                        "netPremium": "INR 0.00"
                    },
                    {
                        "coverType": "Cover",
                        "coverAvailability": "AVAILABLE",
                        "coverCode": "ACCESSORIES",
                        "name": "Non Electrical Accessories - IMT 24",
                        "componentNumber": "47801",
                        "selection": false,
                        "value": {
                            "valueType": "SUM_INSURED",
                            "insuredValue": 188,
                            "minValue": 188,
                            "maxValue": 9379
                        },
                        "subCovers": [
                            
                        ],
                        "netPremium": "INR 0.00"
                    },
                    {
                        "coverType": "Cover",
                        "coverAvailability": "NOT_AVAILABLE",
                        "coverCode": "ACCESSORIES",
                        "name": "R1 Cover",
                        "componentNumber": "49067",
                        "selection": false,
                        "value": {
                            "insuredValue": 0
                        },
                        "subCovers": [
                            
                        ],
                        "netPremium": "INR 0.00"
                    },
                    {
                        "coverType": "Cover",
                        "coverAvailability": "NOT_AVAILABLE",
                        "coverCode": "ACCESSORIES",
                        "name": "L1 Cover",
                        "componentNumber": "49749",
                        "selection": false,
                        "value": {
                            "insuredValue": 0
                        },
                        "subCovers": [
                            
                        ],
                        "netPremium": "INR 0.00"
                    }
                ],
                "netPremium": "INR 1165.76",
                "tariffPremium": "INR 513.00",
                "netPremiumWithoutPreInspection": "INR 1165.76",
                "ncbDiscountWithoutPreInspection": "INR 233.15",
                "policyNetPremiumWithoutPreInspection": "INR 2014.61",
                "policyGrossPremiumWithoutPreInspection": "INR 2377.24",
                "netPremiumWithoutZeroDepWithoutPreInspection": "INR 1165.76",
                "ncbDiscountWithoutZeroDepWithoutPreInspection": "INR 233.15",
                "policyNetPremiumWithoutZeroDepWithoutPreInspection": "INR 2014.61",
                "policyGrossPremiumWithoutZeroDepWithoutPreInspection": "INR 2377.24",
                "surchargeWithoutPreInspection": {
                    "loadings": [
                        {
                            "loadingType": "OTHER_LOADING",
                            "loadingPercent": -81.93,
                            "loadingAmount": "INR -419.99"
                        }
                    ]
                },
                "surchargeWithoutZeroDep": {
                    "loadings": [
                        {
                            "loadingType": "OTHER_LOADING",
                            "loadingPercent": -81.93,
                            "loadingAmount": "INR -419.99"
                        }
                    ]
                },
                "voluntaryDeductible": "ZERO",
                "plan": "PLAN_D"
            },
            {
                "coverType": "ADDONS",
                "coverAvailability": "AVAILABLE",
                "coverCode": "ADDONS",
                "name": "Motor Own Damage -  Add Ons",
                "selection": false,
                "status": "ACTIVE",
                "value": {
                    "insuredValue": 0
                },
                "subCovers": [
                    {
                        "coverType": "Cover",
                        "coverAvailability": "AVAILABLE",
                        "coverOfferingType": "INDIVIDUAL",
                        "coverCode": "RSA_ADDON",
                        "name": "Road Side Assistance",
                        "selection": false,
                        "status": "ACTIVE",
                        "value": {
                            "insuredValue": 0
                        },
                        "subCovers": [
                            
                        ],
                        "netPremium": "INR 0.00",
                        "netPremiumWithoutPreInspection": "INR 0.00"
                    },
                    {
                        "coverType": "Cover",
                        "coverAvailability": "AVAILABLE",
                        "coverOfferingType": "INDIVIDUAL",
                        "coverCode": "OTHER_ADDON",
                        "name": "Parts Depreciation Protect",
                        "componentNumber": "10031",
                        "selection": false,
                        "value": {
                            "insuredValue": 0,
                            "minValue": 0,
                            "maxValue": 0
                        },
                        "subCovers": [
                            {
                                "coverType": "Cover",
                                "coverAvailability": "AVAILABLE",
                                "name": "Cover only 1 claims per year",
                                "componentNumber": "10143",
                                "selection": false,
                                "value": {
                                    "insuredValue": 0,
                                    "minValue": 0,
                                    "maxValue": 0
                                },
                                "subCovers": [
                                    
                                ],
                                "netPremium": "INR 0.00"
                            },
                            {
                                "coverType": "Cover",
                                "coverAvailability": "AVAILABLE",
                                "name": "Cover only 2 claims per year",
                                "componentNumber": "10144",
                                "selection": false,
                                "value": {
                                    "insuredValue": 0,
                                    "minValue": 0,
                                    "maxValue": 0
                                },
                                "subCovers": [
                                    
                                ],
                                "netPremium": "INR 0.00"
                            },
                            {
                                "coverType": "Cover",
                                "coverAvailability": "AVAILABLE",
                                "name": "Cover Unlimited Claims",
                                "componentNumber": "10145",
                                "selection": false,
                                "value": {
                                    "insuredValue": 0,
                                    "minValue": 0,
                                    "maxValue": 0
                                },
                                "subCovers": [
                                    
                                ],
                                "netPremium": "INR 0.00"
                            }
                        ],
                        "netPremium": "INR 0.00",
                        "netPremiumWithoutPreInspection": "INR 0.00"
                    },
                    {
                        "coverType": "Cover",
                        "coverAvailability": "AVAILABLE",
                        "coverOfferingType": "INDIVIDUAL",
                        "coverCode": "OTHER_ADDON",
                        "name": "Consumable cover",
                        "componentNumber": "10038",
                        "selection": false,
                        "value": {
                            "insuredValue": 0,
                            "minValue": 0,
                            "maxValue": 0
                        },
                        "subCovers": [
                            
                        ],
                        "netPremium": "INR 0.00",
                        "netPremiumWithoutPreInspection": "INR 0.00"
                    },
                    {
                        "coverType": "Cover",
                        "coverAvailability": "AVAILABLE",
                        "coverOfferingType": "INDIVIDUAL",
                        "coverCode": "OTHER_ADDON",
                        "name": "Engine and Gear Box Protect",
                        "componentNumber": "10032",
                        "selection": false,
                        "value": {
                            "insuredValue": 0,
                            "minValue": 0,
                            "maxValue": 0
                        },
                        "subCovers": [
                            
                        ],
                        "netPremium": "INR 0.00",
                        "netPremiumWithoutPreInspection": "INR 0.00"
                    },
                    {
                        "coverType": "Cover",
                        "coverAvailability": "NOT_AVAILABLE",
                        "coverOfferingType": "INDIVIDUAL",
                        "coverCode": "OTHER_ADDON",
                        "name": "Return to Invoice",
                        "componentNumber": "10034",
                        "selection": false,
                        "value": {
                            "insuredValue": 0
                        },
                        "subCovers": [
                            
                        ],
                        "netPremium": "INR 0.00"
                    }
                ],
                "netPremium": "INR 0.00"
            },
            {
                "coverType": "PA_OWNER",
                "coverAvailability": "AVAILABLE",
                "coverCode": "PA_OWNER",
                "name": "PA Owner Driver",
                "selection": true,
                "status": "ACTIVE",
                "value": {
                    "valueType": "SUM_INSURED",
                    "insuredValue": 1500000.0
                },
                "subCovers": [
                    {
                        "coverType": "Cover",
                        "coverAvailability": "MANDATORY",
                        "coverCode": "PA_OWNER",
                        "name": "Personal Accident",
                        "componentNumber": "10028",
                        "selection": true,
                        "value": {
                            "valueType": "SUM_INSURED",
                            "insuredValue": 1500000,
                            "minValue": 100000,
                            "maxValue": 1500000.03,
                            "validValues": [
                                1500000,
                                1500000.01,
                                1500000.02
                            ]
                        },
                        "subCovers": [
                            
                        ],
                        "netPremium": "INR 330.00"
                    },
                    {
                        "coverType": "Cover",
                        "coverAvailability": "NOT_AVAILABLE",
                        "coverCode": "PA_OWNER",
                        "name": "Personal Accident",
                        "componentNumber": "10174",
                        "selection": false,
                        "value": {
                            "insuredValue": 0
                        },
                        "subCovers": [
                            
                        ],
                        "netPremium": "INR 0.00"
                    },
                    {
                        "coverType": "Cover",
                        "coverAvailability": "NOT_AVAILABLE",
                        "coverCode": "PA_OWNER",
                        "name": "Term Plan",
                        "componentNumber": "48081",
                        "selection": false,
                        "value": {
                            "valueType": "TERM_COUNT",
                            "insuredValue": 1
                        },
                        "subCovers": [
                            
                        ],
                        "netPremium": "INR 0.00"
                    }
                ],
                "netPremium": "INR 0.00"
            },
            {
                "coverType": "PA_UNNAMED",
                "coverAvailability": "AVAILABLE",
                "coverCode": "PA_UNNAMED",
                "name": "Unnamed PA Cover",
                "selection": false,
                "status": "ACTIVE",
                "value": {
                    "valueType": "SUM_INSURED",
                    "insuredValue": 100000.0,
                    "minValue": 10000.0,
                    "maxValue": 100000.0,
                    "validValues": [
                        10000.0,
                        20000.0,
                        30000.0,
                        40000.0,
                        50000.0,
                        60000.0,
                        70000.0,
                        80000.0,
                        90000.0,
                        100000.0
                    ]
                },
                "subCovers": [
                    {
                        "coverType": "Cover",
                        "coverAvailability": "AVAILABLE",
                        "name": "PA cover for Unnamed Passenger - IMT 16",
                        "componentNumber": "47722",
                        "selection": false,
                        "value": {
                            "valueType": "SUM_INSURED",
                            "insuredValue": 100000,
                            "minValue": 10000,
                            "maxValue": 100000,
                            "validValues": [
                                10000.0,
                                20000.0,
                                30000.0,
                                40000.0,
                                50000.0,
                                60000.0,
                                70000.0,
                                80000.0,
                                90000.0,
                                100000.0
                            ]
                        },
                        "subCovers": [
                            {
                                "coverType": "Cover",
                                "coverAvailability": "MANDATORY",
                                "name": "Number of Unnamed Passenger",
                                "componentNumber": "47716",
                                "selection": true,
                                "value": {
                                    "valueType": "INSURED_COUNT",
                                    "insuredValue": 2,
                                    "minValue": 1,
                                    "maxValue": 15
                                },
                                "subCovers": [
                                    
                                ],
                                "netPremium": "INR 0.00"
                            }
                        ],
                        "netPremium": "INR 0.00"
                    },
                    {
                        "coverType": "Cover",
                        "coverAvailability": "AVAILABLE",
                        "name": "PA cover for Paid Driver - IMT 17",
                        "componentNumber": "47721",
                        "selection": false,
                        "value": {
                            "insuredValue": 100000,
                            "minValue": 100000,
                            "maxValue": 200000
                        },
                        "subCovers": [
                            {
                                "coverType": "Cover",
                                "coverAvailability": "MANDATORY",
                                "name": "Number of Paid Driver",
                                "componentNumber": "47713",
                                "selection": true,
                                "value": {
                                    "valueType": "INSURED_COUNT",
                                    "insuredValue": 1,
                                    "minValue": 1,
                                    "maxValue": 15
                                },
                                "subCovers": [
                                    
                                ],
                                "netPremium": "INR 0.00"
                            }
                        ],
                        "netPremium": "INR 0.00"
                    }
                ],
                "netPremium": "INR 0.00"
            },
            {
                "coverType": "LEGAL_LIABILITY",
                "coverAvailability": "AVAILABLE",
                "coverCode": "LEGAL_LIABILITY",
                "name": "Legal Liability Cover",
                "selection": false,
                "status": "ACTIVE",
                "value": {
                    "insuredValue": 0
                },
                "subCovers": [
                    {
                        "coverType": "Cover",
                        "coverAvailability": "AVAILABLE",
                        "name": "Legal Liability to Paid Driver - IMT 28",
                        "componentNumber": "10181",
                        "selection": false,
                        "value": {
                            "valueType": "INSURED_COUNT",
                            "insuredValue": 1,
                            "minValue": 1,
                            "maxValue": 15
                        },
                        "subCovers": [
                            
                        ],
                        "netPremium": "INR 0.00"
                    },
                    {
                        "coverType": "Cover",
                        "coverAvailability": "AVAILABLE",
                        "name": "Legal Liability to Employees - IMT 29",
                        "componentNumber": "47749",
                        "selection": false,
                        "value": {
                            "valueType": "INSURED_COUNT",
                            "insuredValue": 1,
                            "minValue": 1,
                            "maxValue": 2
                        },
                        "subCovers": [
                            
                        ],
                        "netPremium": "INR 0.00"
                    }
                ],
                "netPremium": "INR 0.00"
            }
        ],
        "policyHolderType": "INDIVIDUAL",
        "isNCBTransfer": false,
        "purchaseDate": "0001-01-01",
        "quotationDate": "2021-06-08",
        "agentCode": "",
        "isRenewalAvailable": false,
        "isPriceParityApplied": false
    },
    "vehicle": {
        "isVehicleNew": false,
        "isValidatedFromVahan": false,
        "vehicleMaincode": "1211410522",
        "licensePlateNumber": "KA01QK2930",
        "vehicleIdentificationNumber": "ASDASUD9AS40D40",
        "engineNumber": "57AS91D65ASD",
        "manufactureDate": "0001-01-01",
        "registrationDate": "2017-03-01",
        "vehicleIDV": {
            "idv": 37516,
            "defaultIdv": 37516,
            "minimumIdv": 30013,
            "maximumIdv": 45020
        },
        "vehicleType": "KFZK120",
        "trailers": [
            
        ],
        "annualMileage": 0,
        "make": "HONDA",
        "model": "CB SHINE",
        "seatingCapacity": 2
    },
    "previousInsurer": {
        "isPreviousInsurerKnown": false,
        "previousInsurerCode": "113",
        "previousPolicyNumber": "POLNUM251255594",
        "previousPolicyExpiryDate": "2021-06-08",
        "isClaimInLastYear": false,
        "originalPreviousPolicyType": "1OD_1TP",
        "previousNoClaimBonus": "ZERO"
    },
    "pospInfo": {
        "isPOSP": false
    },
    "preInspection": {
        "isPreInspectionOpted": false,
        "isPreInspectionRequired": false,
        "isPreInspectionEligible": false,
        "isPreInspectionWaived": false,
        "isSchoolBusWaiverEligibleWithTPlusFortyEight": false,
        "piType": "OFFLINE",
        "photoCode": 7,
        "inspectionType": "1",
        "approvalType": "AUTO"
    },
    "persons": [
        {
            "personType": "INDIVIDUAL",
            "partyId": "V28EB7EDEFA3A0405BEC46F2810DC1E26896CD3C3ED8E9BE95CA9AA1C42554DB6097D8D0BB592054A7BE75AD78FD55B728",
            "addresses": [
                {
                    "addressId": "V210C6B606B999577E046FA625A0C45ACF96CD3C3ED8E9BE95CA9AA1C42554DB6097D8D0BB592054A7BE75AD78FD55B728",
                    "addressType": "PRIMARY_RESIDENCE",
                    "street": "ASDUIASUIUIDAS",
                    "district": "",
                    "state": "24",
                    "city": "Bengaluru",
                    "country": "IN",
                    "pincode": "560001"
                }
            ],
            "communications": [
                {
                    "identifier": "V22F32ED3E8FA66A18A214B45B4FC03ADE96CD3C3ED8E9BE95CA9AA1C42554DB6097D8D0BB592054A7BE75AD78FD55B728",
                    "communicationType": "MOBILE",
                    "communicationId": "9876543212",
                    "isPrefferedCommunication": true
                },
                {
                    "identifier": "V2966B5E37E6709EFFACE0E2FCF2D8432796CD3C3ED8E9BE95CA9AA1C42554DB6097D8D0BB592054A7BE75AD78FD55B728",
                    "communicationType": "EMAIL",
                    "communicationId": "U@Q.COM",
                    "isPrefferedCommunication": true
                }
            ],
            "identificationDocuments": [
                
            ],
            "isPolicyHolder": true,
            "isVehicleOwner": true,
            "firstName": "TEST",
            "dateOfBirth": "1921-01-01",
            "gender": "MALE",
            "isDriver": true,
            "isInsuredPerson": true
        }
    ],
    "motorQuestions": {
        "selfInspection": false
    },
    "documents": [
        
    ],
    "motorBreakIn": {
        "isBreakin": false,
        "isPreInspectionWaived": false,
        "isPreInspectionCompleted": false,
        "isDocumentUploaded": false
    },
    "applicationId": "V2B0C129AEC98BAC5FD5F9BE9D8A090E0696CD3C3ED8E9BE95CA9AA1C42554DB6097D8D0BB592054A7BE75AD78FD55B728",
    "policyNumber": "D400538167",
    "policyState": "APPLICATION",
    "policyStatus": "INCOMPLETE",
    "state": "ACTIVE",
    "netPremium": "INR 2014.61",
    "grossPremium": "INR 2377.24",
    "discounts": {
        "specialDiscountAmount": "INR 0.00",
        "otherDiscounts": [
            {
                "discountType": "NCB_DISCOUNT",
                "discountPercent": 20.0,
                "discountAmount": "INR 233.15"
            }
        ]
    },
    "loadings": {
        "totalLoadingAmount": "INR 0.00",
        "otherLoadings": [
            {
                "loadingType": "OTHER_LOADING",
                "loadingPercent": -81.93,
                "loadingAmount": "INR -419.99"
            }
        ]
    },
    "serviceTax": {
        "cgst": "INR 0.00",
        "sgst": "INR 0.00",
        "igst": "INR 362.63",
        "utgst": "INR 0.00",
        "totalTax": "INR 362.63",
        "taxType": "IGST"
    },
    "informationMessages": [
        "UW_GRID_PARAMS:imdCode=1000295&previousInsurerCode=113&channel=D01&secondaryVehicleType=Motor Cycle&privateCarSegment=ALL&fleetId=ALL&ncb=20&addonsRequired=false&pricingChannel=I26&regionCode=KA01&claimInLastYear=No&modelCode=105&makeCode=114&previousNcb=0&vehicleAge=4&vehicleBody=ALL&webUserId=35327650&campaignId=ALL&nilDepFlag=No&officeCode=13601&gvw=1&vehicleCode=1211410522&cubicCapacity=125.0&breakInDuration=0&productCode=20201&fuelType=B&primaryVehicleType=12&longTermPackages=1OD_1TP&businessType=3&seatingCapacity=2&effectiveDate=2021-06-08"
    ],
    "error": {
        "errorCode": 0,
        "httpCode": 200,
        "validationMessages": [
            
        ],
        "errorLink": null,
        "errorStackTrace": null
    }
}