{
    "orderId": "02kni202011001",
    "itemId": "58141230",
    "legalEntity": "Mintwalk",
    "isGroup": true,
    "isInPromotion": false,
    "fleetNumber": "000124",
    "productCode": "KS",
    "mainClassProduct": "Digit Asset Care:IRDAN158P0030V01201718",
    "mainClassProductCode": "30101",
    "security": {
        "webUserId": "00127088",
        "password": "digit123"
    },
    "source": "KnightShield",
    "person": {
        "firstName": "TestKS",
        "lastName": ".",
        "personType": "NATURALPERSON",
        "communication": {
            "email": "manisha.pukale@godigit.com",
            "mobile": "8099557323"
        },
        "address": {
            "city": "560038",
            "country": "IN",
            "street": "No. 284 Ground Floor 100 Feet Road Indiranagar Bangalore - 560038",
            "pin": "560038"
        }
    },
    "insuredPerson": {
        "firstName": "Test",
        "lastName": ".",
        "personType": "NATURALPERSON",
        "communication": {
            "email": "manisha.pukale@godigit.com",
            "mobile": "8099557323"
        },
        "address": {
            "city": "560038",
            "country": "IN",
            "street": "No. 284 Ground Floor 100 Feet Road Indiranagar Bangalore - 560038",
            "pin": "560038"
        },
        "nominee": {
            "nomineeName": "TestKS"
        }
    },
    "mobileDetails": [
        {
            "identificationNumber": "502123235345113",
            "model": "Redmi 8 Onyx Black 4GB+64GB",
            "make": "asdfgh",
            "orderDate": "2020-10-28",
            "marketValue": "15000",
            "purchaseMode": "B",
            "invoiceValue": "15000",
            "phoneYear": "",
            "phoneSKUID": "XIA0095",
            "isphoneReplacementAllowed": true,
            "propertyType": "EIMMOBI",
            "deliveryDate": "2020-10-15"
        }
    ],
    "productSequenceNumber": "10166",
    "policyStartDate": "2020-10-29",
    "policyEndDate": "2021-10-28",
    "nonAbsId": "kni162011001"
}