{
    "enquiryId": "03test11001",
    "security": {
        "webUserId": "36343824",
        "password": "Digit@165$"
    },
    "secondaryPolicyHolder": {
        "personType": "NATURALPERSON",
        "address": {
            "city": "Pune",
            "state": "27",
            "country": "IN",
            "street": "this is address of Isnsured person",
            "pin": "411001"
        },
        "firstName": "XBQNB",
        "lastName": "AXBKO",
        "dateOfBirth": "1993-08-28",
        "gender": "MALE",
        "communication": {
            "email": "manisha.pukale@godigit.com",
            "mobile": "8099557323"
        }
    },
    "primaryPolicyHolder": {
        "personType": "LEGALPERSON",
        "address": {
            "city": "Mumbai",
            "state": "27",
            "country": "IN",
            "street": "7 Unit Colony",
            "pin": "400064"
        },
        "companyName": "Airtel Payments Bank",
        "communication": {},
        "gstCode": "UNREGISTERED"
    },
    "propertyDetails": {
        "shopName": "A6M Electricals and Forging Ltd.",
        "shopCategory": "S21",
        "sumInsured": "INR700000",
        "constructionType": "P",
        "roofShape": "E",
        "address": {
            "state": "27",
            "city": "Pune",
            "country": "IN",
            "pinCode": "411001",
            "street": "this is address of Isnsured person"
        },
        "buildingPrice": "INR700000"
    },
    "startDate": "2020-11-01",
    "endDate": "2021-10-31",
    "packageName": "A8",
    "providerRefNo": "01test11002",
    "insuranceProductCode": "40104",
    "productSequenceNumber": "10195",
    "fleetNumber": "000118"
}