{
    "enquiryId": "03test11002",
    "security": {
        "webUserId": "36343824",
        "password": "Digit@165$"
    },
    "payment": {
        "paymentType": "AGENT_FLOAT",
        "paymentAmount": " 1818.0",
        "transactionID": "1234",
        "transactionDate": "2020-09-10"
    },
    "providerRefNo": "01test11001",
    "applicationId": "V2D1D631E2DDF6081E68DC2470991C6D1F525B15EF5371E0F563D4894425C9F90EE6BEDCE9AFE5898D60D62440A3EB8FE1"
}